^C:\USERS\IULIA\SABOTEUR\SABOTEUR\SABOTEURTESTS\STDAFX.CPP
/c /I"C:\PROGRAM FILES (X86)\MICROSOFT VISUAL STUDIO\2017\COMMUNITY\VC\UNITTEST\INCLUDE" /IC:\USERS\IULIA\SABOTEUR\SABOTEUR\SABOTEUR /ZI /JMC /nologo /W3 /WX- /diagnostics:classic /Od /Oy- /D WIN32 /D _DEBUG /D _WINDLL /D _UNICODE /D UNICODE /Gm- /EHsc /RTC1 /MDd /GS /fp:precise /Zc:wchar_t /Zc:forScope /Zc:inline /std:c++17 /Yc"stdafx.h" /Fp"DEBUG\SABOTEURTESTS.PCH" /Fo"DEBUG\\" /Fd"DEBUG\VC141.PDB" /Gd /TP /analyze- /FC C:\USERS\IULIA\SABOTEUR\SABOTEUR\SABOTEURTESTS\STDAFX.CPP
^C:\USERS\IULIA\SABOTEUR\SABOTEUR\SABOTEURTESTS\BOARDTESTS.CPP
/c /I"C:\PROGRAM FILES (X86)\MICROSOFT VISUAL STUDIO\2017\COMMUNITY\VC\UNITTEST\INCLUDE" /IC:\USERS\IULIA\SABOTEUR\SABOTEUR\SABOTEUR /ZI /JMC /nologo /W3 /WX- /diagnostics:classic /Od /Oy- /D WIN32 /D _DEBUG /D _WINDLL /D _UNICODE /D UNICODE /Gm- /EHsc /RTC1 /MDd /GS /fp:precise /Zc:wchar_t /Zc:forScope /Zc:inline /std:c++17 /Yu"stdafx.h" /Fp"DEBUG\SABOTEURTESTS.PCH" /Fo"DEBUG\\" /Fd"DEBUG\VC141.PDB" /Gd /TP /analyze- /FC C:\USERS\IULIA\SABOTEUR\SABOTEUR\SABOTEURTESTS\BOARDTESTS.CPP
^C:\USERS\IULIA\SABOTEUR\SABOTEUR\SABOTEURTESTS\BOARDSTATECHECKERTESTS.CPP
/c /I"C:\PROGRAM FILES (X86)\MICROSOFT VISUAL STUDIO\2017\COMMUNITY\VC\UNITTEST\INCLUDE" /IC:\USERS\IULIA\SABOTEUR\SABOTEUR\SABOTEUR /ZI /JMC /nologo /W3 /WX- /diagnostics:classic /Od /Oy- /D WIN32 /D _DEBUG /D _WINDLL /D _UNICODE /D UNICODE /Gm- /EHsc /RTC1 /MDd /GS /fp:precise /Zc:wchar_t /Zc:forScope /Zc:inline /std:c++17 /Yu"stdafx.h" /Fp"DEBUG\SABOTEURTESTS.PCH" /Fo"DEBUG\\" /Fd"DEBUG\VC141.PDB" /Gd /TP /analyze- /FC C:\USERS\IULIA\SABOTEUR\SABOTEUR\SABOTEURTESTS\BOARDSTATECHECKERTESTS.CPP
^C:\USERS\IULIA\SABOTEUR\SABOTEUR\SABOTEURTESTS\PLAYERACTIONSTESTS.CPP
/c /I"C:\PROGRAM FILES (X86)\MICROSOFT VISUAL STUDIO\2017\COMMUNITY\VC\UNITTEST\INCLUDE" /IC:\USERS\IULIA\SABOTEUR\SABOTEUR\SABOTEUR /ZI /JMC /nologo /W3 /WX- /diagnostics:classic /Od /Oy- /D WIN32 /D _DEBUG /D _WINDLL /D _UNICODE /D UNICODE /Gm- /EHsc /RTC1 /MDd /GS /fp:precise /Zc:wchar_t /Zc:forScope /Zc:inline /std:c++17 /Yu"stdafx.h" /Fp"DEBUG\SABOTEURTESTS.PCH" /Fo"DEBUG\\" /Fd"DEBUG\VC141.PDB" /Gd /TP /analyze- /FC C:\USERS\IULIA\SABOTEUR\SABOTEUR\SABOTEURTESTS\PLAYERACTIONSTESTS.CPP
^C:\USERS\IULIA\SABOTEUR\SABOTEUR\SABOTEURTESTS\CARDTESTS.CPP
/c /I"C:\PROGRAM FILES (X86)\MICROSOFT VISUAL STUDIO\2017\COMMUNITY\VC\UNITTEST\INCLUDE" /IC:\USERS\IULIA\SABOTEUR\SABOTEUR\SABOTEUR /ZI /JMC /nologo /W3 /WX- /diagnostics:classic /Od /Oy- /D WIN32 /D _DEBUG /D _WINDLL /D _UNICODE /D UNICODE /Gm- /EHsc /RTC1 /MDd /GS /fp:precise /Zc:wchar_t /Zc:forScope /Zc:inline /std:c++17 /Yu"stdafx.h" /Fp"DEBUG\SABOTEURTESTS.PCH" /Fo"DEBUG\\" /Fd"DEBUG\VC141.PDB" /Gd /TP /analyze- /FC C:\USERS\IULIA\SABOTEUR\SABOTEUR\SABOTEURTESTS\CARDTESTS.CPP
^C:\USERS\IULIA\SABOTEUR\SABOTEUR\SABOTEURTESTS\GAMETESTS.CPP
/c /I"C:\PROGRAM FILES (X86)\MICROSOFT VISUAL STUDIO\2017\COMMUNITY\VC\UNITTEST\INCLUDE" /IC:\USERS\IULIA\SABOTEUR\SABOTEUR\SABOTEUR /ZI /JMC /nologo /W3 /WX- /diagnostics:classic /Od /Oy- /D WIN32 /D _DEBUG /D _WINDLL /D _UNICODE /D UNICODE /Gm- /EHsc /RTC1 /MDd /GS /fp:precise /Zc:wchar_t /Zc:forScope /Zc:inline /std:c++17 /Yu"stdafx.h" /Fp"DEBUG\SABOTEURTESTS.PCH" /Fo"DEBUG\\" /Fd"DEBUG\VC141.PDB" /Gd /TP /analyze- /FC C:\USERS\IULIA\SABOTEUR\SABOTEUR\SABOTEURTESTS\GAMETESTS.CPP
^D:\SABOTEUR2\SABOTEUR\SABOTEURTESTS\STDAFX.CPP
/c /I"D:\VISUAL STUDIO\VC\UNITTEST\INCLUDE" /ID:\SABOTEUR2\SABOTEUR\SABOTEUR /ZI /JMC /nologo /W3 /WX- /diagnostics:classic /Od /Oy- /D WIN32 /D _DEBUG /D _WINDLL /D _UNICODE /D UNICODE /Gm- /EHsc /RTC1 /MDd /GS /fp:precise /Zc:wchar_t /Zc:forScope /Zc:inline /std:c++17 /Yc"stdafx.h" /Fp"DEBUG\SABOTEURTESTS.PCH" /Fo"DEBUG\\" /Fd"DEBUG\VC141.PDB" /Gd /TP /analyze- /FC D:\SABOTEUR2\SABOTEUR\SABOTEURTESTS\STDAFX.CPP
^D:\SABOTEUR2\SABOTEUR\SABOTEURTESTS\BOARDTESTS.CPP
/c /I"D:\VISUAL STUDIO\VC\UNITTEST\INCLUDE" /ID:\SABOTEUR2\SABOTEUR\SABOTEUR /ZI /JMC /nologo /W3 /WX- /diagnostics:classic /Od /Oy- /D WIN32 /D _DEBUG /D _WINDLL /D _UNICODE /D UNICODE /Gm- /EHsc /RTC1 /MDd /GS /fp:precise /Zc:wchar_t /Zc:forScope /Zc:inline /std:c++17 /Yu"stdafx.h" /Fp"DEBUG\SABOTEURTESTS.PCH" /Fo"DEBUG\\" /Fd"DEBUG\VC141.PDB" /Gd /TP /analyze- /FC D:\SABOTEUR2\SABOTEUR\SABOTEURTESTS\BOARDTESTS.CPP
^D:\SABOTEUR2\SABOTEUR\SABOTEURTESTS\BOARDSTATECHECKERTESTS.CPP
/c /I"D:\VISUAL STUDIO\VC\UNITTEST\INCLUDE" /ID:\SABOTEUR2\SABOTEUR\SABOTEUR /ZI /JMC /nologo /W3 /WX- /diagnostics:classic /Od /Oy- /D WIN32 /D _DEBUG /D _WINDLL /D _UNICODE /D UNICODE /Gm- /EHsc /RTC1 /MDd /GS /fp:precise /Zc:wchar_t /Zc:forScope /Zc:inline /std:c++17 /Yu"stdafx.h" /Fp"DEBUG\SABOTEURTESTS.PCH" /Fo"DEBUG\\" /Fd"DEBUG\VC141.PDB" /Gd /TP /analyze- /FC D:\SABOTEUR2\SABOTEUR\SABOTEURTESTS\BOARDSTATECHECKERTESTS.CPP
^D:\SABOTEUR2\SABOTEUR\SABOTEURTESTS\PLAYERACTIONSTESTS.CPP
/c /I"D:\VISUAL STUDIO\VC\UNITTEST\INCLUDE" /ID:\SABOTEUR2\SABOTEUR\SABOTEUR /ZI /JMC /nologo /W3 /WX- /diagnostics:classic /Od /Oy- /D WIN32 /D _DEBUG /D _WINDLL /D _UNICODE /D UNICODE /Gm- /EHsc /RTC1 /MDd /GS /fp:precise /Zc:wchar_t /Zc:forScope /Zc:inline /std:c++17 /Yu"stdafx.h" /Fp"DEBUG\SABOTEURTESTS.PCH" /Fo"DEBUG\\" /Fd"DEBUG\VC141.PDB" /Gd /TP /analyze- /FC D:\SABOTEUR2\SABOTEUR\SABOTEURTESTS\PLAYERACTIONSTESTS.CPP
^D:\SABOTEUR2\SABOTEUR\SABOTEURTESTS\CARDTESTS.CPP
/c /I"D:\VISUAL STUDIO\VC\UNITTEST\INCLUDE" /ID:\SABOTEUR2\SABOTEUR\SABOTEUR /ZI /JMC /nologo /W3 /WX- /diagnostics:classic /Od /Oy- /D WIN32 /D _DEBUG /D _WINDLL /D _UNICODE /D UNICODE /Gm- /EHsc /RTC1 /MDd /GS /fp:precise /Zc:wchar_t /Zc:forScope /Zc:inline /std:c++17 /Yu"stdafx.h" /Fp"DEBUG\SABOTEURTESTS.PCH" /Fo"DEBUG\\" /Fd"DEBUG\VC141.PDB" /Gd /TP /analyze- /FC D:\SABOTEUR2\SABOTEUR\SABOTEURTESTS\CARDTESTS.CPP
