^D:\SABOTEUR2\SABOTEUR\SABOTEURTESTS\STDAFX.CPP
D:\SABOTEUR2\SABOTEUR\SABOTEURTESTS\DEBUG\SABOTEURTESTS.PCH
D:\SABOTEUR2\SABOTEUR\SABOTEURTESTS\DEBUG\VC141.PDB
D:\SABOTEUR2\SABOTEUR\SABOTEURTESTS\DEBUG\VC141.IDB
D:\SABOTEUR2\SABOTEUR\SABOTEURTESTS\DEBUG\STDAFX.OBJ
^D:\SABOTEUR2\SABOTEUR\SABOTEURTESTS\BOARDSTATECHECKERTESTS.CPP|D:\SABOTEUR2\SABOTEUR\SABOTEURTESTS\BOARDTESTS.CPP|D:\SABOTEUR2\SABOTEUR\SABOTEURTESTS\CARDTESTS.CPP|D:\SABOTEUR2\SABOTEUR\SABOTEURTESTS\PLAYERACTIONSTESTS.CPP
D:\SABOTEUR2\SABOTEUR\SABOTEURTESTS\DEBUG\VC141.PDB
D:\SABOTEUR2\SABOTEUR\SABOTEURTESTS\DEBUG\VC141.IDB
D:\SABOTEUR2\SABOTEUR\SABOTEURTESTS\DEBUG\CARDTESTS.OBJ
D:\SABOTEUR2\SABOTEUR\SABOTEURTESTS\DEBUG\PLAYERACTIONSTESTS.OBJ
D:\SABOTEUR2\SABOTEUR\SABOTEURTESTS\DEBUG\BOARDSTATECHECKERTESTS.OBJ
D:\SABOTEUR2\SABOTEUR\SABOTEURTESTS\DEBUG\BOARDTESTS.OBJ
^D:\SABOTEUR2\SABOTEUR\SABOTEURTESTS\BOARDTESTS.CPP
D:\SABOTEUR2\SABOTEUR\SABOTEURTESTS\DEBUG\VC141.PDB
^D:\SABOTEUR2\SABOTEUR\SABOTEURTESTS\BOARDSTATECHECKERTESTS.CPP
D:\SABOTEUR2\SABOTEUR\SABOTEURTESTS\DEBUG\VC141.PDB
^D:\SABOTEUR2\SABOTEUR\SABOTEURTESTS\PLAYERACTIONSTESTS.CPP
D:\SABOTEUR2\SABOTEUR\SABOTEURTESTS\DEBUG\VC141.PDB
^D:\SABOTEUR2\SABOTEUR\SABOTEURTESTS\CARDTESTS.CPP
D:\SABOTEUR2\SABOTEUR\SABOTEURTESTS\DEBUG\VC141.PDB
