^D:\SABOTEUR2\SABOTEUR\SABOTEUR\ACTIONCARD.CPP
D:\SABOTEUR2\SABOTEUR\SABOTEUR\ACTIONCARD.H
D:\VISUAL STUDIO\VC\TOOLS\MSVC\14.15.26726\INCLUDE\IOSTREAM
D:\VISUAL STUDIO\VC\TOOLS\MSVC\14.15.26726\INCLUDE\ISTREAM
D:\VISUAL STUDIO\VC\TOOLS\MSVC\14.15.26726\INCLUDE\OSTREAM
D:\VISUAL STUDIO\VC\TOOLS\MSVC\14.15.26726\INCLUDE\IOS
D:\VISUAL STUDIO\VC\TOOLS\MSVC\14.15.26726\INCLUDE\XLOCNUM
D:\VISUAL STUDIO\VC\TOOLS\MSVC\14.15.26726\INCLUDE\CLIMITS
D:\VISUAL STUDIO\VC\TOOLS\MSVC\14.15.26726\INCLUDE\YVALS.H
D:\VISUAL STUDIO\VC\TOOLS\MSVC\14.15.26726\INCLUDE\YVALS_CORE.H
D:\VISUAL STUDIO\VC\TOOLS\MSVC\14.15.26726\INCLUDE\XKEYCHECK.H
D:\VISUAL STUDIO\VC\TOOLS\MSVC\14.15.26726\INCLUDE\CRTDEFS.H
D:\VISUAL STUDIO\VC\TOOLS\MSVC\14.15.26726\INCLUDE\VCRUNTIME.H
D:\VISUAL STUDIO\VC\TOOLS\MSVC\14.15.26726\INCLUDE\SAL.H
D:\VISUAL STUDIO\VC\TOOLS\MSVC\14.15.26726\INCLUDE\CONCURRENCYSAL.H
D:\VISUAL STUDIO\VC\TOOLS\MSVC\14.15.26726\INCLUDE\VADEFS.H
D:\WINDOWS KITS\10\INCLUDE\10.0.17134.0\UCRT\CORECRT.H
D:\WINDOWS KITS\10\INCLUDE\10.0.17134.0\UCRT\CRTDBG.H
D:\VISUAL STUDIO\VC\TOOLS\MSVC\14.15.26726\INCLUDE\VCRUNTIME_NEW_DEBUG.H
D:\VISUAL STUDIO\VC\TOOLS\MSVC\14.15.26726\INCLUDE\VCRUNTIME_NEW.H
D:\VISUAL STUDIO\VC\TOOLS\MSVC\14.15.26726\INCLUDE\USE_ANSI.H
D:\VISUAL STUDIO\VC\TOOLS\MSVC\14.15.26726\INCLUDE\LIMITS.H
D:\VISUAL STUDIO\VC\TOOLS\MSVC\14.15.26726\INCLUDE\CMATH
D:\VISUAL STUDIO\VC\TOOLS\MSVC\14.15.26726\INCLUDE\CSTDLIB
D:\WINDOWS KITS\10\INCLUDE\10.0.17134.0\UCRT\STDLIB.H
D:\WINDOWS KITS\10\INCLUDE\10.0.17134.0\UCRT\CORECRT_MALLOC.H
D:\WINDOWS KITS\10\INCLUDE\10.0.17134.0\UCRT\CORECRT_SEARCH.H
D:\WINDOWS KITS\10\INCLUDE\10.0.17134.0\UCRT\STDDEF.H
D:\WINDOWS KITS\10\INCLUDE\10.0.17134.0\UCRT\CORECRT_WSTDLIB.H
D:\WINDOWS KITS\10\INCLUDE\10.0.17134.0\UCRT\MATH.H
D:\WINDOWS KITS\10\INCLUDE\10.0.17134.0\UCRT\CORECRT_MATH.H
D:\VISUAL STUDIO\VC\TOOLS\MSVC\14.15.26726\INCLUDE\XTGMATH.H
D:\VISUAL STUDIO\VC\TOOLS\MSVC\14.15.26726\INCLUDE\XTR1COMMON
D:\VISUAL STUDIO\VC\TOOLS\MSVC\14.15.26726\INCLUDE\CSTDIO
D:\WINDOWS KITS\10\INCLUDE\10.0.17134.0\UCRT\STDIO.H
D:\WINDOWS KITS\10\INCLUDE\10.0.17134.0\UCRT\CORECRT_WSTDIO.H
D:\WINDOWS KITS\10\INCLUDE\10.0.17134.0\UCRT\CORECRT_STDIO_CONFIG.H
D:\VISUAL STUDIO\VC\TOOLS\MSVC\14.15.26726\INCLUDE\STREAMBUF
D:\VISUAL STUDIO\VC\TOOLS\MSVC\14.15.26726\INCLUDE\XIOSBASE
D:\VISUAL STUDIO\VC\TOOLS\MSVC\14.15.26726\INCLUDE\XLOCALE
D:\VISUAL STUDIO\VC\TOOLS\MSVC\14.15.26726\INCLUDE\CSTRING
D:\WINDOWS KITS\10\INCLUDE\10.0.17134.0\UCRT\STRING.H
D:\WINDOWS KITS\10\INCLUDE\10.0.17134.0\UCRT\CORECRT_MEMORY.H
D:\WINDOWS KITS\10\INCLUDE\10.0.17134.0\UCRT\CORECRT_MEMCPY_S.H
D:\WINDOWS KITS\10\INCLUDE\10.0.17134.0\UCRT\ERRNO.H
D:\VISUAL STUDIO\VC\TOOLS\MSVC\14.15.26726\INCLUDE\VCRUNTIME_STRING.H
D:\WINDOWS KITS\10\INCLUDE\10.0.17134.0\UCRT\CORECRT_WSTRING.H
D:\VISUAL STUDIO\VC\TOOLS\MSVC\14.15.26726\INCLUDE\STDEXCEPT
D:\VISUAL STUDIO\VC\TOOLS\MSVC\14.15.26726\INCLUDE\EXCEPTION
D:\VISUAL STUDIO\VC\TOOLS\MSVC\14.15.26726\INCLUDE\TYPE_TRAITS
D:\VISUAL STUDIO\VC\TOOLS\MSVC\14.15.26726\INCLUDE\XSTDDEF
D:\VISUAL STUDIO\VC\TOOLS\MSVC\14.15.26726\INCLUDE\CSTDDEF
D:\VISUAL STUDIO\VC\TOOLS\MSVC\14.15.26726\INCLUDE\INITIALIZER_LIST
D:\WINDOWS KITS\10\INCLUDE\10.0.17134.0\UCRT\MALLOC.H
D:\VISUAL STUDIO\VC\TOOLS\MSVC\14.15.26726\INCLUDE\VCRUNTIME_EXCEPTION.H
D:\VISUAL STUDIO\VC\TOOLS\MSVC\14.15.26726\INCLUDE\EH.H
D:\WINDOWS KITS\10\INCLUDE\10.0.17134.0\UCRT\CORECRT_TERMINATE.H
D:\VISUAL STUDIO\VC\TOOLS\MSVC\14.15.26726\INCLUDE\XSTRING
D:\VISUAL STUDIO\VC\TOOLS\MSVC\14.15.26726\INCLUDE\XMEMORY0
D:\VISUAL STUDIO\VC\TOOLS\MSVC\14.15.26726\INCLUDE\CSTDINT
D:\VISUAL STUDIO\VC\TOOLS\MSVC\14.15.26726\INCLUDE\STDINT.H
D:\VISUAL STUDIO\VC\TOOLS\MSVC\14.15.26726\INCLUDE\LIMITS
D:\VISUAL STUDIO\VC\TOOLS\MSVC\14.15.26726\INCLUDE\YMATH.H
D:\VISUAL STUDIO\VC\TOOLS\MSVC\14.15.26726\INCLUDE\CFLOAT
D:\WINDOWS KITS\10\INCLUDE\10.0.17134.0\UCRT\FLOAT.H
D:\VISUAL STUDIO\VC\TOOLS\MSVC\14.15.26726\INCLUDE\CWCHAR
D:\WINDOWS KITS\10\INCLUDE\10.0.17134.0\UCRT\WCHAR.H
D:\WINDOWS KITS\10\INCLUDE\10.0.17134.0\UCRT\CORECRT_WCONIO.H
D:\WINDOWS KITS\10\INCLUDE\10.0.17134.0\UCRT\CORECRT_WCTYPE.H
D:\WINDOWS KITS\10\INCLUDE\10.0.17134.0\UCRT\CORECRT_WDIRECT.H
D:\WINDOWS KITS\10\INCLUDE\10.0.17134.0\UCRT\CORECRT_WIO.H
D:\WINDOWS KITS\10\INCLUDE\10.0.17134.0\UCRT\CORECRT_SHARE.H
D:\WINDOWS KITS\10\INCLUDE\10.0.17134.0\UCRT\CORECRT_WPROCESS.H
D:\WINDOWS KITS\10\INCLUDE\10.0.17134.0\UCRT\CORECRT_WTIME.H
D:\WINDOWS KITS\10\INCLUDE\10.0.17134.0\UCRT\SYS\STAT.H
D:\WINDOWS KITS\10\INCLUDE\10.0.17134.0\UCRT\SYS\TYPES.H
D:\VISUAL STUDIO\VC\TOOLS\MSVC\14.15.26726\INCLUDE\NEW
D:\VISUAL STUDIO\VC\TOOLS\MSVC\14.15.26726\INCLUDE\XUTILITY
D:\VISUAL STUDIO\VC\TOOLS\MSVC\14.15.26726\INCLUDE\UTILITY
D:\VISUAL STUDIO\VC\TOOLS\MSVC\14.15.26726\INCLUDE\IOSFWD
D:\VISUAL STUDIO\VC\TOOLS\MSVC\14.15.26726\INCLUDE\XATOMIC0.H
D:\VISUAL STUDIO\VC\TOOLS\MSVC\14.15.26726\INCLUDE\INTRIN0.H
D:\VISUAL STUDIO\VC\TOOLS\MSVC\14.15.26726\INCLUDE\TYPEINFO
D:\VISUAL STUDIO\VC\TOOLS\MSVC\14.15.26726\INCLUDE\VCRUNTIME_TYPEINFO.H
D:\VISUAL STUDIO\VC\TOOLS\MSVC\14.15.26726\INCLUDE\XLOCINFO
D:\VISUAL STUDIO\VC\TOOLS\MSVC\14.15.26726\INCLUDE\XLOCINFO.H
D:\WINDOWS KITS\10\INCLUDE\10.0.17134.0\UCRT\CTYPE.H
D:\WINDOWS KITS\10\INCLUDE\10.0.17134.0\UCRT\LOCALE.H
D:\VISUAL STUDIO\VC\TOOLS\MSVC\14.15.26726\INCLUDE\MEMORY
D:\VISUAL STUDIO\VC\TOOLS\MSVC\14.15.26726\INCLUDE\XMEMORY
D:\VISUAL STUDIO\VC\TOOLS\MSVC\14.15.26726\INCLUDE\XFACET
D:\VISUAL STUDIO\VC\TOOLS\MSVC\14.15.26726\INCLUDE\SYSTEM_ERROR
D:\VISUAL STUDIO\VC\TOOLS\MSVC\14.15.26726\INCLUDE\CERRNO
D:\VISUAL STUDIO\VC\TOOLS\MSVC\14.15.26726\INCLUDE\XCALL_ONCE.H
D:\VISUAL STUDIO\VC\TOOLS\MSVC\14.15.26726\INCLUDE\XERRC.H
D:\WINDOWS KITS\10\INCLUDE\10.0.17134.0\UCRT\SHARE.H
^D:\SABOTEUR2\SABOTEUR\SABOTEUR\BEGINCARD.CPP
D:\SABOTEUR2\SABOTEUR\SABOTEUR\BEGINCARD.H
D:\VISUAL STUDIO\VC\TOOLS\MSVC\14.15.26726\INCLUDE\IOSTREAM
D:\VISUAL STUDIO\VC\TOOLS\MSVC\14.15.26726\INCLUDE\ISTREAM
D:\VISUAL STUDIO\VC\TOOLS\MSVC\14.15.26726\INCLUDE\OSTREAM
D:\VISUAL STUDIO\VC\TOOLS\MSVC\14.15.26726\INCLUDE\IOS
D:\VISUAL STUDIO\VC\TOOLS\MSVC\14.15.26726\INCLUDE\XLOCNUM
D:\VISUAL STUDIO\VC\TOOLS\MSVC\14.15.26726\INCLUDE\CLIMITS
D:\VISUAL STUDIO\VC\TOOLS\MSVC\14.15.26726\INCLUDE\YVALS.H
D:\VISUAL STUDIO\VC\TOOLS\MSVC\14.15.26726\INCLUDE\YVALS_CORE.H
D:\VISUAL STUDIO\VC\TOOLS\MSVC\14.15.26726\INCLUDE\XKEYCHECK.H
D:\VISUAL STUDIO\VC\TOOLS\MSVC\14.15.26726\INCLUDE\CRTDEFS.H
D:\VISUAL STUDIO\VC\TOOLS\MSVC\14.15.26726\INCLUDE\VCRUNTIME.H
D:\VISUAL STUDIO\VC\TOOLS\MSVC\14.15.26726\INCLUDE\SAL.H
D:\VISUAL STUDIO\VC\TOOLS\MSVC\14.15.26726\INCLUDE\CONCURRENCYSAL.H
D:\VISUAL STUDIO\VC\TOOLS\MSVC\14.15.26726\INCLUDE\VADEFS.H
D:\WINDOWS KITS\10\INCLUDE\10.0.17134.0\UCRT\CORECRT.H
D:\WINDOWS KITS\10\INCLUDE\10.0.17134.0\UCRT\CRTDBG.H
D:\VISUAL STUDIO\VC\TOOLS\MSVC\14.15.26726\INCLUDE\VCRUNTIME_NEW_DEBUG.H
D:\VISUAL STUDIO\VC\TOOLS\MSVC\14.15.26726\INCLUDE\VCRUNTIME_NEW.H
D:\VISUAL STUDIO\VC\TOOLS\MSVC\14.15.26726\INCLUDE\USE_ANSI.H
D:\VISUAL STUDIO\VC\TOOLS\MSVC\14.15.26726\INCLUDE\LIMITS.H
D:\VISUAL STUDIO\VC\TOOLS\MSVC\14.15.26726\INCLUDE\CMATH
D:\VISUAL STUDIO\VC\TOOLS\MSVC\14.15.26726\INCLUDE\CSTDLIB
D:\WINDOWS KITS\10\INCLUDE\10.0.17134.0\UCRT\STDLIB.H
D:\WINDOWS KITS\10\INCLUDE\10.0.17134.0\UCRT\CORECRT_MALLOC.H
D:\WINDOWS KITS\10\INCLUDE\10.0.17134.0\UCRT\CORECRT_SEARCH.H
D:\WINDOWS KITS\10\INCLUDE\10.0.17134.0\UCRT\STDDEF.H
D:\WINDOWS KITS\10\INCLUDE\10.0.17134.0\UCRT\CORECRT_WSTDLIB.H
D:\WINDOWS KITS\10\INCLUDE\10.0.17134.0\UCRT\MATH.H
D:\WINDOWS KITS\10\INCLUDE\10.0.17134.0\UCRT\CORECRT_MATH.H
D:\VISUAL STUDIO\VC\TOOLS\MSVC\14.15.26726\INCLUDE\XTGMATH.H
D:\VISUAL STUDIO\VC\TOOLS\MSVC\14.15.26726\INCLUDE\XTR1COMMON
D:\VISUAL STUDIO\VC\TOOLS\MSVC\14.15.26726\INCLUDE\CSTDIO
D:\WINDOWS KITS\10\INCLUDE\10.0.17134.0\UCRT\STDIO.H
D:\WINDOWS KITS\10\INCLUDE\10.0.17134.0\UCRT\CORECRT_WSTDIO.H
D:\WINDOWS KITS\10\INCLUDE\10.0.17134.0\UCRT\CORECRT_STDIO_CONFIG.H
D:\VISUAL STUDIO\VC\TOOLS\MSVC\14.15.26726\INCLUDE\STREAMBUF
D:\VISUAL STUDIO\VC\TOOLS\MSVC\14.15.26726\INCLUDE\XIOSBASE
D:\VISUAL STUDIO\VC\TOOLS\MSVC\14.15.26726\INCLUDE\XLOCALE
D:\VISUAL STUDIO\VC\TOOLS\MSVC\14.15.26726\INCLUDE\CSTRING
D:\WINDOWS KITS\10\INCLUDE\10.0.17134.0\UCRT\STRING.H
D:\WINDOWS KITS\10\INCLUDE\10.0.17134.0\UCRT\CORECRT_MEMORY.H
D:\WINDOWS KITS\10\INCLUDE\10.0.17134.0\UCRT\CORECRT_MEMCPY_S.H
D:\WINDOWS KITS\10\INCLUDE\10.0.17134.0\UCRT\ERRNO.H
D:\VISUAL STUDIO\VC\TOOLS\MSVC\14.15.26726\INCLUDE\VCRUNTIME_STRING.H
D:\WINDOWS KITS\10\INCLUDE\10.0.17134.0\UCRT\CORECRT_WSTRING.H
D:\VISUAL STUDIO\VC\TOOLS\MSVC\14.15.26726\INCLUDE\STDEXCEPT
D:\VISUAL STUDIO\VC\TOOLS\MSVC\14.15.26726\INCLUDE\EXCEPTION
D:\VISUAL STUDIO\VC\TOOLS\MSVC\14.15.26726\INCLUDE\TYPE_TRAITS
D:\VISUAL STUDIO\VC\TOOLS\MSVC\14.15.26726\INCLUDE\XSTDDEF
D:\VISUAL STUDIO\VC\TOOLS\MSVC\14.15.26726\INCLUDE\CSTDDEF
D:\VISUAL STUDIO\VC\TOOLS\MSVC\14.15.26726\INCLUDE\INITIALIZER_LIST
D:\WINDOWS KITS\10\INCLUDE\10.0.17134.0\UCRT\MALLOC.H
D:\VISUAL STUDIO\VC\TOOLS\MSVC\14.15.26726\INCLUDE\VCRUNTIME_EXCEPTION.H
D:\VISUAL STUDIO\VC\TOOLS\MSVC\14.15.26726\INCLUDE\EH.H
D:\WINDOWS KITS\10\INCLUDE\10.0.17134.0\UCRT\CORECRT_TERMINATE.H
D:\VISUAL STUDIO\VC\TOOLS\MSVC\14.15.26726\INCLUDE\XSTRING
D:\VISUAL STUDIO\VC\TOOLS\MSVC\14.15.26726\INCLUDE\XMEMORY0
D:\VISUAL STUDIO\VC\TOOLS\MSVC\14.15.26726\INCLUDE\CSTDINT
D:\VISUAL STUDIO\VC\TOOLS\MSVC\14.15.26726\INCLUDE\STDINT.H
D:\VISUAL STUDIO\VC\TOOLS\MSVC\14.15.26726\INCLUDE\LIMITS
D:\VISUAL STUDIO\VC\TOOLS\MSVC\14.15.26726\INCLUDE\YMATH.H
D:\VISUAL STUDIO\VC\TOOLS\MSVC\14.15.26726\INCLUDE\CFLOAT
D:\WINDOWS KITS\10\INCLUDE\10.0.17134.0\UCRT\FLOAT.H
D:\VISUAL STUDIO\VC\TOOLS\MSVC\14.15.26726\INCLUDE\CWCHAR
D:\WINDOWS KITS\10\INCLUDE\10.0.17134.0\UCRT\WCHAR.H
D:\WINDOWS KITS\10\INCLUDE\10.0.17134.0\UCRT\CORECRT_WCONIO.H
D:\WINDOWS KITS\10\INCLUDE\10.0.17134.0\UCRT\CORECRT_WCTYPE.H
D:\WINDOWS KITS\10\INCLUDE\10.0.17134.0\UCRT\CORECRT_WDIRECT.H
D:\WINDOWS KITS\10\INCLUDE\10.0.17134.0\UCRT\CORECRT_WIO.H
D:\WINDOWS KITS\10\INCLUDE\10.0.17134.0\UCRT\CORECRT_SHARE.H
D:\WINDOWS KITS\10\INCLUDE\10.0.17134.0\UCRT\CORECRT_WPROCESS.H
D:\WINDOWS KITS\10\INCLUDE\10.0.17134.0\UCRT\CORECRT_WTIME.H
D:\WINDOWS KITS\10\INCLUDE\10.0.17134.0\UCRT\SYS\STAT.H
D:\WINDOWS KITS\10\INCLUDE\10.0.17134.0\UCRT\SYS\TYPES.H
D:\VISUAL STUDIO\VC\TOOLS\MSVC\14.15.26726\INCLUDE\NEW
D:\VISUAL STUDIO\VC\TOOLS\MSVC\14.15.26726\INCLUDE\XUTILITY
D:\VISUAL STUDIO\VC\TOOLS\MSVC\14.15.26726\INCLUDE\UTILITY
D:\VISUAL STUDIO\VC\TOOLS\MSVC\14.15.26726\INCLUDE\IOSFWD
D:\VISUAL STUDIO\VC\TOOLS\MSVC\14.15.26726\INCLUDE\XATOMIC0.H
D:\VISUAL STUDIO\VC\TOOLS\MSVC\14.15.26726\INCLUDE\INTRIN0.H
D:\VISUAL STUDIO\VC\TOOLS\MSVC\14.15.26726\INCLUDE\TYPEINFO
D:\VISUAL STUDIO\VC\TOOLS\MSVC\14.15.26726\INCLUDE\VCRUNTIME_TYPEINFO.H
D:\VISUAL STUDIO\VC\TOOLS\MSVC\14.15.26726\INCLUDE\XLOCINFO
D:\VISUAL STUDIO\VC\TOOLS\MSVC\14.15.26726\INCLUDE\XLOCINFO.H
D:\WINDOWS KITS\10\INCLUDE\10.0.17134.0\UCRT\CTYPE.H
D:\WINDOWS KITS\10\INCLUDE\10.0.17134.0\UCRT\LOCALE.H
D:\VISUAL STUDIO\VC\TOOLS\MSVC\14.15.26726\INCLUDE\MEMORY
D:\VISUAL STUDIO\VC\TOOLS\MSVC\14.15.26726\INCLUDE\XMEMORY
D:\VISUAL STUDIO\VC\TOOLS\MSVC\14.15.26726\INCLUDE\XFACET
D:\VISUAL STUDIO\VC\TOOLS\MSVC\14.15.26726\INCLUDE\SYSTEM_ERROR
D:\VISUAL STUDIO\VC\TOOLS\MSVC\14.15.26726\INCLUDE\CERRNO
D:\VISUAL STUDIO\VC\TOOLS\MSVC\14.15.26726\INCLUDE\XCALL_ONCE.H
D:\VISUAL STUDIO\VC\TOOLS\MSVC\14.15.26726\INCLUDE\XERRC.H
D:\WINDOWS KITS\10\INCLUDE\10.0.17134.0\UCRT\SHARE.H
^D:\SABOTEUR2\SABOTEUR\SABOTEUR\BOARD.CPP
D:\SABOTEUR2\SABOTEUR\SABOTEUR\BOARD.H
D:\SABOTEUR2\SABOTEUR\SABOTEUR\PATHCARD.H
D:\VISUAL STUDIO\VC\TOOLS\MSVC\14.15.26726\INCLUDE\IOSTREAM
D:\VISUAL STUDIO\VC\TOOLS\MSVC\14.15.26726\INCLUDE\ISTREAM
D:\VISUAL STUDIO\VC\TOOLS\MSVC\14.15.26726\INCLUDE\OSTREAM
D:\VISUAL STUDIO\VC\TOOLS\MSVC\14.15.26726\INCLUDE\IOS
D:\VISUAL STUDIO\VC\TOOLS\MSVC\14.15.26726\INCLUDE\XLOCNUM
D:\VISUAL STUDIO\VC\TOOLS\MSVC\14.15.26726\INCLUDE\CLIMITS
D:\VISUAL STUDIO\VC\TOOLS\MSVC\14.15.26726\INCLUDE\YVALS.H
D:\VISUAL STUDIO\VC\TOOLS\MSVC\14.15.26726\INCLUDE\YVALS_CORE.H
D:\VISUAL STUDIO\VC\TOOLS\MSVC\14.15.26726\INCLUDE\XKEYCHECK.H
D:\VISUAL STUDIO\VC\TOOLS\MSVC\14.15.26726\INCLUDE\CRTDEFS.H
D:\VISUAL STUDIO\VC\TOOLS\MSVC\14.15.26726\INCLUDE\VCRUNTIME.H
D:\VISUAL STUDIO\VC\TOOLS\MSVC\14.15.26726\INCLUDE\SAL.H
D:\VISUAL STUDIO\VC\TOOLS\MSVC\14.15.26726\INCLUDE\CONCURRENCYSAL.H
D:\VISUAL STUDIO\VC\TOOLS\MSVC\14.15.26726\INCLUDE\VADEFS.H
D:\WINDOWS KITS\10\INCLUDE\10.0.17134.0\UCRT\CORECRT.H
D:\WINDOWS KITS\10\INCLUDE\10.0.17134.0\UCRT\CRTDBG.H
D:\VISUAL STUDIO\VC\TOOLS\MSVC\14.15.26726\INCLUDE\VCRUNTIME_NEW_DEBUG.H
D:\VISUAL STUDIO\VC\TOOLS\MSVC\14.15.26726\INCLUDE\VCRUNTIME_NEW.H
D:\VISUAL STUDIO\VC\TOOLS\MSVC\14.15.26726\INCLUDE\USE_ANSI.H
D:\VISUAL STUDIO\VC\TOOLS\MSVC\14.15.26726\INCLUDE\LIMITS.H
D:\VISUAL STUDIO\VC\TOOLS\MSVC\14.15.26726\INCLUDE\CMATH
D:\VISUAL STUDIO\VC\TOOLS\MSVC\14.15.26726\INCLUDE\CSTDLIB
D:\WINDOWS KITS\10\INCLUDE\10.0.17134.0\UCRT\STDLIB.H
D:\WINDOWS KITS\10\INCLUDE\10.0.17134.0\UCRT\CORECRT_MALLOC.H
D:\WINDOWS KITS\10\INCLUDE\10.0.17134.0\UCRT\CORECRT_SEARCH.H
D:\WINDOWS KITS\10\INCLUDE\10.0.17134.0\UCRT\STDDEF.H
D:\WINDOWS KITS\10\INCLUDE\10.0.17134.0\UCRT\CORECRT_WSTDLIB.H
D:\WINDOWS KITS\10\INCLUDE\10.0.17134.0\UCRT\MATH.H
D:\WINDOWS KITS\10\INCLUDE\10.0.17134.0\UCRT\CORECRT_MATH.H
D:\VISUAL STUDIO\VC\TOOLS\MSVC\14.15.26726\INCLUDE\XTGMATH.H
D:\VISUAL STUDIO\VC\TOOLS\MSVC\14.15.26726\INCLUDE\XTR1COMMON
D:\VISUAL STUDIO\VC\TOOLS\MSVC\14.15.26726\INCLUDE\CSTDIO
D:\WINDOWS KITS\10\INCLUDE\10.0.17134.0\UCRT\STDIO.H
D:\WINDOWS KITS\10\INCLUDE\10.0.17134.0\UCRT\CORECRT_WSTDIO.H
D:\WINDOWS KITS\10\INCLUDE\10.0.17134.0\UCRT\CORECRT_STDIO_CONFIG.H
D:\VISUAL STUDIO\VC\TOOLS\MSVC\14.15.26726\INCLUDE\STREAMBUF
D:\VISUAL STUDIO\VC\TOOLS\MSVC\14.15.26726\INCLUDE\XIOSBASE
D:\VISUAL STUDIO\VC\TOOLS\MSVC\14.15.26726\INCLUDE\XLOCALE
D:\VISUAL STUDIO\VC\TOOLS\MSVC\14.15.26726\INCLUDE\CSTRING
D:\WINDOWS KITS\10\INCLUDE\10.0.17134.0\UCRT\STRING.H
D:\WINDOWS KITS\10\INCLUDE\10.0.17134.0\UCRT\CORECRT_MEMORY.H
D:\WINDOWS KITS\10\INCLUDE\10.0.17134.0\UCRT\CORECRT_MEMCPY_S.H
D:\WINDOWS KITS\10\INCLUDE\10.0.17134.0\UCRT\ERRNO.H
D:\VISUAL STUDIO\VC\TOOLS\MSVC\14.15.26726\INCLUDE\VCRUNTIME_STRING.H
D:\WINDOWS KITS\10\INCLUDE\10.0.17134.0\UCRT\CORECRT_WSTRING.H
D:\VISUAL STUDIO\VC\TOOLS\MSVC\14.15.26726\INCLUDE\STDEXCEPT
D:\VISUAL STUDIO\VC\TOOLS\MSVC\14.15.26726\INCLUDE\EXCEPTION
D:\VISUAL STUDIO\VC\TOOLS\MSVC\14.15.26726\INCLUDE\TYPE_TRAITS
D:\VISUAL STUDIO\VC\TOOLS\MSVC\14.15.26726\INCLUDE\XSTDDEF
D:\VISUAL STUDIO\VC\TOOLS\MSVC\14.15.26726\INCLUDE\CSTDDEF
D:\VISUAL STUDIO\VC\TOOLS\MSVC\14.15.26726\INCLUDE\INITIALIZER_LIST
D:\WINDOWS KITS\10\INCLUDE\10.0.17134.0\UCRT\MALLOC.H
D:\VISUAL STUDIO\VC\TOOLS\MSVC\14.15.26726\INCLUDE\VCRUNTIME_EXCEPTION.H
D:\VISUAL STUDIO\VC\TOOLS\MSVC\14.15.26726\INCLUDE\EH.H
D:\WINDOWS KITS\10\INCLUDE\10.0.17134.0\UCRT\CORECRT_TERMINATE.H
D:\VISUAL STUDIO\VC\TOOLS\MSVC\14.15.26726\INCLUDE\XSTRING
D:\VISUAL STUDIO\VC\TOOLS\MSVC\14.15.26726\INCLUDE\XMEMORY0
D:\VISUAL STUDIO\VC\TOOLS\MSVC\14.15.26726\INCLUDE\CSTDINT
D:\VISUAL STUDIO\VC\TOOLS\MSVC\14.15.26726\INCLUDE\STDINT.H
D:\VISUAL STUDIO\VC\TOOLS\MSVC\14.15.26726\INCLUDE\LIMITS
D:\VISUAL STUDIO\VC\TOOLS\MSVC\14.15.26726\INCLUDE\YMATH.H
D:\VISUAL STUDIO\VC\TOOLS\MSVC\14.15.26726\INCLUDE\CFLOAT
D:\WINDOWS KITS\10\INCLUDE\10.0.17134.0\UCRT\FLOAT.H
D:\VISUAL STUDIO\VC\TOOLS\MSVC\14.15.26726\INCLUDE\CWCHAR
D:\WINDOWS KITS\10\INCLUDE\10.0.17134.0\UCRT\WCHAR.H
D:\WINDOWS KITS\10\INCLUDE\10.0.17134.0\UCRT\CORECRT_WCONIO.H
D:\WINDOWS KITS\10\INCLUDE\10.0.17134.0\UCRT\CORECRT_WCTYPE.H
D:\WINDOWS KITS\10\INCLUDE\10.0.17134.0\UCRT\CORECRT_WDIRECT.H
D:\WINDOWS KITS\10\INCLUDE\10.0.17134.0\UCRT\CORECRT_WIO.H
D:\WINDOWS KITS\10\INCLUDE\10.0.17134.0\UCRT\CORECRT_SHARE.H
D:\WINDOWS KITS\10\INCLUDE\10.0.17134.0\UCRT\CORECRT_WPROCESS.H
D:\WINDOWS KITS\10\INCLUDE\10.0.17134.0\UCRT\CORECRT_WTIME.H
D:\WINDOWS KITS\10\INCLUDE\10.0.17134.0\UCRT\SYS\STAT.H
D:\WINDOWS KITS\10\INCLUDE\10.0.17134.0\UCRT\SYS\TYPES.H
D:\VISUAL STUDIO\VC\TOOLS\MSVC\14.15.26726\INCLUDE\NEW
D:\VISUAL STUDIO\VC\TOOLS\MSVC\14.15.26726\INCLUDE\XUTILITY
D:\VISUAL STUDIO\VC\TOOLS\MSVC\14.15.26726\INCLUDE\UTILITY
D:\VISUAL STUDIO\VC\TOOLS\MSVC\14.15.26726\INCLUDE\IOSFWD
D:\VISUAL STUDIO\VC\TOOLS\MSVC\14.15.26726\INCLUDE\XATOMIC0.H
D:\VISUAL STUDIO\VC\TOOLS\MSVC\14.15.26726\INCLUDE\INTRIN0.H
D:\VISUAL STUDIO\VC\TOOLS\MSVC\14.15.26726\INCLUDE\TYPEINFO
D:\VISUAL STUDIO\VC\TOOLS\MSVC\14.15.26726\INCLUDE\VCRUNTIME_TYPEINFO.H
D:\VISUAL STUDIO\VC\TOOLS\MSVC\14.15.26726\INCLUDE\XLOCINFO
D:\VISUAL STUDIO\VC\TOOLS\MSVC\14.15.26726\INCLUDE\XLOCINFO.H
D:\WINDOWS KITS\10\INCLUDE\10.0.17134.0\UCRT\CTYPE.H
D:\WINDOWS KITS\10\INCLUDE\10.0.17134.0\UCRT\LOCALE.H
D:\VISUAL STUDIO\VC\TOOLS\MSVC\14.15.26726\INCLUDE\MEMORY
D:\VISUAL STUDIO\VC\TOOLS\MSVC\14.15.26726\INCLUDE\XMEMORY
D:\VISUAL STUDIO\VC\TOOLS\MSVC\14.15.26726\INCLUDE\XFACET
D:\VISUAL STUDIO\VC\TOOLS\MSVC\14.15.26726\INCLUDE\SYSTEM_ERROR
D:\VISUAL STUDIO\VC\TOOLS\MSVC\14.15.26726\INCLUDE\CERRNO
D:\VISUAL STUDIO\VC\TOOLS\MSVC\14.15.26726\INCLUDE\XCALL_ONCE.H
D:\VISUAL STUDIO\VC\TOOLS\MSVC\14.15.26726\INCLUDE\XERRC.H
D:\WINDOWS KITS\10\INCLUDE\10.0.17134.0\UCRT\SHARE.H
D:\SABOTEUR2\SABOTEUR\SABOTEUR\BEGINCARD.H
D:\VISUAL STUDIO\VC\TOOLS\MSVC\14.15.26726\INCLUDE\ARRAY
D:\VISUAL STUDIO\VC\TOOLS\MSVC\14.15.26726\INCLUDE\ALGORITHM
D:\VISUAL STUDIO\VC\TOOLS\MSVC\14.15.26726\INCLUDE\ITERATOR
D:\VISUAL STUDIO\VC\TOOLS\MSVC\14.15.26726\INCLUDE\TUPLE
D:\VISUAL STUDIO\VC\TOOLS\MSVC\14.15.26726\INCLUDE\OPTIONAL
D:\VISUAL STUDIO\VC\TOOLS\MSVC\14.15.26726\INCLUDE\XSMF_CONTROL.H
D:\VISUAL STUDIO\VC\TOOLS\MSVC\14.15.26726\INCLUDE\VARIANT
^D:\SABOTEUR2\SABOTEUR\SABOTEUR\BOARDSTATECHECKER.CPP
D:\SABOTEUR2\SABOTEUR\SABOTEUR\BOARDSTATECHECKER.H
D:\SABOTEUR2\SABOTEUR\SABOTEUR\BOARD.H
D:\SABOTEUR2\SABOTEUR\SABOTEUR\PATHCARD.H
D:\VISUAL STUDIO\VC\TOOLS\MSVC\14.15.26726\INCLUDE\IOSTREAM
D:\VISUAL STUDIO\VC\TOOLS\MSVC\14.15.26726\INCLUDE\ISTREAM
D:\VISUAL STUDIO\VC\TOOLS\MSVC\14.15.26726\INCLUDE\OSTREAM
D:\VISUAL STUDIO\VC\TOOLS\MSVC\14.15.26726\INCLUDE\IOS
D:\VISUAL STUDIO\VC\TOOLS\MSVC\14.15.26726\INCLUDE\XLOCNUM
D:\VISUAL STUDIO\VC\TOOLS\MSVC\14.15.26726\INCLUDE\CLIMITS
D:\VISUAL STUDIO\VC\TOOLS\MSVC\14.15.26726\INCLUDE\YVALS.H
D:\VISUAL STUDIO\VC\TOOLS\MSVC\14.15.26726\INCLUDE\YVALS_CORE.H
D:\VISUAL STUDIO\VC\TOOLS\MSVC\14.15.26726\INCLUDE\XKEYCHECK.H
D:\VISUAL STUDIO\VC\TOOLS\MSVC\14.15.26726\INCLUDE\CRTDEFS.H
D:\VISUAL STUDIO\VC\TOOLS\MSVC\14.15.26726\INCLUDE\VCRUNTIME.H
D:\VISUAL STUDIO\VC\TOOLS\MSVC\14.15.26726\INCLUDE\SAL.H
D:\VISUAL STUDIO\VC\TOOLS\MSVC\14.15.26726\INCLUDE\CONCURRENCYSAL.H
D:\VISUAL STUDIO\VC\TOOLS\MSVC\14.15.26726\INCLUDE\VADEFS.H
D:\WINDOWS KITS\10\INCLUDE\10.0.17134.0\UCRT\CORECRT.H
D:\WINDOWS KITS\10\INCLUDE\10.0.17134.0\UCRT\CRTDBG.H
D:\VISUAL STUDIO\VC\TOOLS\MSVC\14.15.26726\INCLUDE\VCRUNTIME_NEW_DEBUG.H
D:\VISUAL STUDIO\VC\TOOLS\MSVC\14.15.26726\INCLUDE\VCRUNTIME_NEW.H
D:\VISUAL STUDIO\VC\TOOLS\MSVC\14.15.26726\INCLUDE\USE_ANSI.H
D:\VISUAL STUDIO\VC\TOOLS\MSVC\14.15.26726\INCLUDE\LIMITS.H
D:\VISUAL STUDIO\VC\TOOLS\MSVC\14.15.26726\INCLUDE\CMATH
D:\VISUAL STUDIO\VC\TOOLS\MSVC\14.15.26726\INCLUDE\CSTDLIB
D:\WINDOWS KITS\10\INCLUDE\10.0.17134.0\UCRT\STDLIB.H
D:\WINDOWS KITS\10\INCLUDE\10.0.17134.0\UCRT\CORECRT_MALLOC.H
D:\WINDOWS KITS\10\INCLUDE\10.0.17134.0\UCRT\CORECRT_SEARCH.H
D:\WINDOWS KITS\10\INCLUDE\10.0.17134.0\UCRT\STDDEF.H
D:\WINDOWS KITS\10\INCLUDE\10.0.17134.0\UCRT\CORECRT_WSTDLIB.H
D:\WINDOWS KITS\10\INCLUDE\10.0.17134.0\UCRT\MATH.H
D:\WINDOWS KITS\10\INCLUDE\10.0.17134.0\UCRT\CORECRT_MATH.H
D:\VISUAL STUDIO\VC\TOOLS\MSVC\14.15.26726\INCLUDE\XTGMATH.H
D:\VISUAL STUDIO\VC\TOOLS\MSVC\14.15.26726\INCLUDE\XTR1COMMON
D:\VISUAL STUDIO\VC\TOOLS\MSVC\14.15.26726\INCLUDE\CSTDIO
D:\WINDOWS KITS\10\INCLUDE\10.0.17134.0\UCRT\STDIO.H
D:\WINDOWS KITS\10\INCLUDE\10.0.17134.0\UCRT\CORECRT_WSTDIO.H
D:\WINDOWS KITS\10\INCLUDE\10.0.17134.0\UCRT\CORECRT_STDIO_CONFIG.H
D:\VISUAL STUDIO\VC\TOOLS\MSVC\14.15.26726\INCLUDE\STREAMBUF
D:\VISUAL STUDIO\VC\TOOLS\MSVC\14.15.26726\INCLUDE\XIOSBASE
D:\VISUAL STUDIO\VC\TOOLS\MSVC\14.15.26726\INCLUDE\XLOCALE
D:\VISUAL STUDIO\VC\TOOLS\MSVC\14.15.26726\INCLUDE\CSTRING
D:\WINDOWS KITS\10\INCLUDE\10.0.17134.0\UCRT\STRING.H
D:\WINDOWS KITS\10\INCLUDE\10.0.17134.0\UCRT\CORECRT_MEMORY.H
D:\WINDOWS KITS\10\INCLUDE\10.0.17134.0\UCRT\CORECRT_MEMCPY_S.H
D:\WINDOWS KITS\10\INCLUDE\10.0.17134.0\UCRT\ERRNO.H
D:\VISUAL STUDIO\VC\TOOLS\MSVC\14.15.26726\INCLUDE\VCRUNTIME_STRING.H
D:\WINDOWS KITS\10\INCLUDE\10.0.17134.0\UCRT\CORECRT_WSTRING.H
D:\VISUAL STUDIO\VC\TOOLS\MSVC\14.15.26726\INCLUDE\STDEXCEPT
D:\VISUAL STUDIO\VC\TOOLS\MSVC\14.15.26726\INCLUDE\EXCEPTION
D:\VISUAL STUDIO\VC\TOOLS\MSVC\14.15.26726\INCLUDE\TYPE_TRAITS
D:\VISUAL STUDIO\VC\TOOLS\MSVC\14.15.26726\INCLUDE\XSTDDEF
D:\VISUAL STUDIO\VC\TOOLS\MSVC\14.15.26726\INCLUDE\CSTDDEF
D:\VISUAL STUDIO\VC\TOOLS\MSVC\14.15.26726\INCLUDE\INITIALIZER_LIST
D:\WINDOWS KITS\10\INCLUDE\10.0.17134.0\UCRT\MALLOC.H
D:\VISUAL STUDIO\VC\TOOLS\MSVC\14.15.26726\INCLUDE\VCRUNTIME_EXCEPTION.H
D:\VISUAL STUDIO\VC\TOOLS\MSVC\14.15.26726\INCLUDE\EH.H
D:\WINDOWS KITS\10\INCLUDE\10.0.17134.0\UCRT\CORECRT_TERMINATE.H
D:\VISUAL STUDIO\VC\TOOLS\MSVC\14.15.26726\INCLUDE\XSTRING
D:\VISUAL STUDIO\VC\TOOLS\MSVC\14.15.26726\INCLUDE\XMEMORY0
D:\VISUAL STUDIO\VC\TOOLS\MSVC\14.15.26726\INCLUDE\CSTDINT
D:\VISUAL STUDIO\VC\TOOLS\MSVC\14.15.26726\INCLUDE\STDINT.H
D:\VISUAL STUDIO\VC\TOOLS\MSVC\14.15.26726\INCLUDE\LIMITS
D:\VISUAL STUDIO\VC\TOOLS\MSVC\14.15.26726\INCLUDE\YMATH.H
D:\VISUAL STUDIO\VC\TOOLS\MSVC\14.15.26726\INCLUDE\CFLOAT
D:\WINDOWS KITS\10\INCLUDE\10.0.17134.0\UCRT\FLOAT.H
D:\VISUAL STUDIO\VC\TOOLS\MSVC\14.15.26726\INCLUDE\CWCHAR
D:\WINDOWS KITS\10\INCLUDE\10.0.17134.0\UCRT\WCHAR.H
D:\WINDOWS KITS\10\INCLUDE\10.0.17134.0\UCRT\CORECRT_WCONIO.H
D:\WINDOWS KITS\10\INCLUDE\10.0.17134.0\UCRT\CORECRT_WCTYPE.H
D:\WINDOWS KITS\10\INCLUDE\10.0.17134.0\UCRT\CORECRT_WDIRECT.H
D:\WINDOWS KITS\10\INCLUDE\10.0.17134.0\UCRT\CORECRT_WIO.H
D:\WINDOWS KITS\10\INCLUDE\10.0.17134.0\UCRT\CORECRT_SHARE.H
D:\WINDOWS KITS\10\INCLUDE\10.0.17134.0\UCRT\CORECRT_WPROCESS.H
D:\WINDOWS KITS\10\INCLUDE\10.0.17134.0\UCRT\CORECRT_WTIME.H
D:\WINDOWS KITS\10\INCLUDE\10.0.17134.0\UCRT\SYS\STAT.H
D:\WINDOWS KITS\10\INCLUDE\10.0.17134.0\UCRT\SYS\TYPES.H
D:\VISUAL STUDIO\VC\TOOLS\MSVC\14.15.26726\INCLUDE\NEW
D:\VISUAL STUDIO\VC\TOOLS\MSVC\14.15.26726\INCLUDE\XUTILITY
D:\VISUAL STUDIO\VC\TOOLS\MSVC\14.15.26726\INCLUDE\UTILITY
D:\VISUAL STUDIO\VC\TOOLS\MSVC\14.15.26726\INCLUDE\IOSFWD
D:\VISUAL STUDIO\VC\TOOLS\MSVC\14.15.26726\INCLUDE\XATOMIC0.H
D:\VISUAL STUDIO\VC\TOOLS\MSVC\14.15.26726\INCLUDE\INTRIN0.H
D:\VISUAL STUDIO\VC\TOOLS\MSVC\14.15.26726\INCLUDE\TYPEINFO
D:\VISUAL STUDIO\VC\TOOLS\MSVC\14.15.26726\INCLUDE\VCRUNTIME_TYPEINFO.H
D:\VISUAL STUDIO\VC\TOOLS\MSVC\14.15.26726\INCLUDE\XLOCINFO
D:\VISUAL STUDIO\VC\TOOLS\MSVC\14.15.26726\INCLUDE\XLOCINFO.H
D:\WINDOWS KITS\10\INCLUDE\10.0.17134.0\UCRT\CTYPE.H
D:\WINDOWS KITS\10\INCLUDE\10.0.17134.0\UCRT\LOCALE.H
D:\VISUAL STUDIO\VC\TOOLS\MSVC\14.15.26726\INCLUDE\MEMORY
D:\VISUAL STUDIO\VC\TOOLS\MSVC\14.15.26726\INCLUDE\XMEMORY
D:\VISUAL STUDIO\VC\TOOLS\MSVC\14.15.26726\INCLUDE\XFACET
D:\VISUAL STUDIO\VC\TOOLS\MSVC\14.15.26726\INCLUDE\SYSTEM_ERROR
D:\VISUAL STUDIO\VC\TOOLS\MSVC\14.15.26726\INCLUDE\CERRNO
D:\VISUAL STUDIO\VC\TOOLS\MSVC\14.15.26726\INCLUDE\XCALL_ONCE.H
D:\VISUAL STUDIO\VC\TOOLS\MSVC\14.15.26726\INCLUDE\XERRC.H
D:\WINDOWS KITS\10\INCLUDE\10.0.17134.0\UCRT\SHARE.H
D:\SABOTEUR2\SABOTEUR\SABOTEUR\BEGINCARD.H
D:\VISUAL STUDIO\VC\TOOLS\MSVC\14.15.26726\INCLUDE\ARRAY
D:\VISUAL STUDIO\VC\TOOLS\MSVC\14.15.26726\INCLUDE\ALGORITHM
D:\VISUAL STUDIO\VC\TOOLS\MSVC\14.15.26726\INCLUDE\ITERATOR
D:\VISUAL STUDIO\VC\TOOLS\MSVC\14.15.26726\INCLUDE\TUPLE
D:\VISUAL STUDIO\VC\TOOLS\MSVC\14.15.26726\INCLUDE\OPTIONAL
D:\VISUAL STUDIO\VC\TOOLS\MSVC\14.15.26726\INCLUDE\XSMF_CONTROL.H
D:\VISUAL STUDIO\VC\TOOLS\MSVC\14.15.26726\INCLUDE\VARIANT
D:\VISUAL STUDIO\VC\TOOLS\MSVC\14.15.26726\INCLUDE\VECTOR
D:\VISUAL STUDIO\VC\TOOLS\MSVC\14.15.26726\INCLUDE\XPOLYMORPHIC_ALLOCATOR.H
^D:\SABOTEUR2\SABOTEUR\SABOTEUR\DISPLAY.CPP
D:\SABOTEUR2\SABOTEUR\SABOTEUR\DISPLAY.H
D:\SABOTEUR2\SABOTEUR\SABOTEUR\BOARD.H
D:\SABOTEUR2\SABOTEUR\SABOTEUR\PATHCARD.H
D:\VISUAL STUDIO\VC\TOOLS\MSVC\14.15.26726\INCLUDE\IOSTREAM
D:\VISUAL STUDIO\VC\TOOLS\MSVC\14.15.26726\INCLUDE\ISTREAM
D:\VISUAL STUDIO\VC\TOOLS\MSVC\14.15.26726\INCLUDE\OSTREAM
D:\VISUAL STUDIO\VC\TOOLS\MSVC\14.15.26726\INCLUDE\IOS
D:\VISUAL STUDIO\VC\TOOLS\MSVC\14.15.26726\INCLUDE\XLOCNUM
D:\VISUAL STUDIO\VC\TOOLS\MSVC\14.15.26726\INCLUDE\CLIMITS
D:\VISUAL STUDIO\VC\TOOLS\MSVC\14.15.26726\INCLUDE\YVALS.H
D:\VISUAL STUDIO\VC\TOOLS\MSVC\14.15.26726\INCLUDE\YVALS_CORE.H
D:\VISUAL STUDIO\VC\TOOLS\MSVC\14.15.26726\INCLUDE\XKEYCHECK.H
D:\VISUAL STUDIO\VC\TOOLS\MSVC\14.15.26726\INCLUDE\CRTDEFS.H
D:\VISUAL STUDIO\VC\TOOLS\MSVC\14.15.26726\INCLUDE\VCRUNTIME.H
D:\VISUAL STUDIO\VC\TOOLS\MSVC\14.15.26726\INCLUDE\SAL.H
D:\VISUAL STUDIO\VC\TOOLS\MSVC\14.15.26726\INCLUDE\CONCURRENCYSAL.H
D:\VISUAL STUDIO\VC\TOOLS\MSVC\14.15.26726\INCLUDE\VADEFS.H
D:\WINDOWS KITS\10\INCLUDE\10.0.17134.0\UCRT\CORECRT.H
D:\WINDOWS KITS\10\INCLUDE\10.0.17134.0\UCRT\CRTDBG.H
D:\VISUAL STUDIO\VC\TOOLS\MSVC\14.15.26726\INCLUDE\VCRUNTIME_NEW_DEBUG.H
D:\VISUAL STUDIO\VC\TOOLS\MSVC\14.15.26726\INCLUDE\VCRUNTIME_NEW.H
D:\VISUAL STUDIO\VC\TOOLS\MSVC\14.15.26726\INCLUDE\USE_ANSI.H
D:\VISUAL STUDIO\VC\TOOLS\MSVC\14.15.26726\INCLUDE\LIMITS.H
D:\VISUAL STUDIO\VC\TOOLS\MSVC\14.15.26726\INCLUDE\CMATH
D:\VISUAL STUDIO\VC\TOOLS\MSVC\14.15.26726\INCLUDE\CSTDLIB
D:\WINDOWS KITS\10\INCLUDE\10.0.17134.0\UCRT\STDLIB.H
D:\WINDOWS KITS\10\INCLUDE\10.0.17134.0\UCRT\CORECRT_MALLOC.H
D:\WINDOWS KITS\10\INCLUDE\10.0.17134.0\UCRT\CORECRT_SEARCH.H
D:\WINDOWS KITS\10\INCLUDE\10.0.17134.0\UCRT\STDDEF.H
D:\WINDOWS KITS\10\INCLUDE\10.0.17134.0\UCRT\CORECRT_WSTDLIB.H
D:\WINDOWS KITS\10\INCLUDE\10.0.17134.0\UCRT\MATH.H
D:\WINDOWS KITS\10\INCLUDE\10.0.17134.0\UCRT\CORECRT_MATH.H
D:\VISUAL STUDIO\VC\TOOLS\MSVC\14.15.26726\INCLUDE\XTGMATH.H
D:\VISUAL STUDIO\VC\TOOLS\MSVC\14.15.26726\INCLUDE\XTR1COMMON
D:\VISUAL STUDIO\VC\TOOLS\MSVC\14.15.26726\INCLUDE\CSTDIO
D:\WINDOWS KITS\10\INCLUDE\10.0.17134.0\UCRT\STDIO.H
D:\WINDOWS KITS\10\INCLUDE\10.0.17134.0\UCRT\CORECRT_WSTDIO.H
D:\WINDOWS KITS\10\INCLUDE\10.0.17134.0\UCRT\CORECRT_STDIO_CONFIG.H
D:\VISUAL STUDIO\VC\TOOLS\MSVC\14.15.26726\INCLUDE\STREAMBUF
D:\VISUAL STUDIO\VC\TOOLS\MSVC\14.15.26726\INCLUDE\XIOSBASE
D:\VISUAL STUDIO\VC\TOOLS\MSVC\14.15.26726\INCLUDE\XLOCALE
D:\VISUAL STUDIO\VC\TOOLS\MSVC\14.15.26726\INCLUDE\CSTRING
D:\WINDOWS KITS\10\INCLUDE\10.0.17134.0\UCRT\STRING.H
D:\WINDOWS KITS\10\INCLUDE\10.0.17134.0\UCRT\CORECRT_MEMORY.H
D:\WINDOWS KITS\10\INCLUDE\10.0.17134.0\UCRT\CORECRT_MEMCPY_S.H
D:\WINDOWS KITS\10\INCLUDE\10.0.17134.0\UCRT\ERRNO.H
D:\VISUAL STUDIO\VC\TOOLS\MSVC\14.15.26726\INCLUDE\VCRUNTIME_STRING.H
D:\WINDOWS KITS\10\INCLUDE\10.0.17134.0\UCRT\CORECRT_WSTRING.H
D:\VISUAL STUDIO\VC\TOOLS\MSVC\14.15.26726\INCLUDE\STDEXCEPT
D:\VISUAL STUDIO\VC\TOOLS\MSVC\14.15.26726\INCLUDE\EXCEPTION
D:\VISUAL STUDIO\VC\TOOLS\MSVC\14.15.26726\INCLUDE\TYPE_TRAITS
D:\VISUAL STUDIO\VC\TOOLS\MSVC\14.15.26726\INCLUDE\XSTDDEF
D:\VISUAL STUDIO\VC\TOOLS\MSVC\14.15.26726\INCLUDE\CSTDDEF
D:\VISUAL STUDIO\VC\TOOLS\MSVC\14.15.26726\INCLUDE\INITIALIZER_LIST
D:\WINDOWS KITS\10\INCLUDE\10.0.17134.0\UCRT\MALLOC.H
D:\VISUAL STUDIO\VC\TOOLS\MSVC\14.15.26726\INCLUDE\VCRUNTIME_EXCEPTION.H
D:\VISUAL STUDIO\VC\TOOLS\MSVC\14.15.26726\INCLUDE\EH.H
D:\WINDOWS KITS\10\INCLUDE\10.0.17134.0\UCRT\CORECRT_TERMINATE.H
D:\VISUAL STUDIO\VC\TOOLS\MSVC\14.15.26726\INCLUDE\XSTRING
D:\VISUAL STUDIO\VC\TOOLS\MSVC\14.15.26726\INCLUDE\XMEMORY0
D:\VISUAL STUDIO\VC\TOOLS\MSVC\14.15.26726\INCLUDE\CSTDINT
D:\VISUAL STUDIO\VC\TOOLS\MSVC\14.15.26726\INCLUDE\STDINT.H
D:\VISUAL STUDIO\VC\TOOLS\MSVC\14.15.26726\INCLUDE\LIMITS
D:\VISUAL STUDIO\VC\TOOLS\MSVC\14.15.26726\INCLUDE\YMATH.H
D:\VISUAL STUDIO\VC\TOOLS\MSVC\14.15.26726\INCLUDE\CFLOAT
D:\WINDOWS KITS\10\INCLUDE\10.0.17134.0\UCRT\FLOAT.H
D:\VISUAL STUDIO\VC\TOOLS\MSVC\14.15.26726\INCLUDE\CWCHAR
D:\WINDOWS KITS\10\INCLUDE\10.0.17134.0\UCRT\WCHAR.H
D:\WINDOWS KITS\10\INCLUDE\10.0.17134.0\UCRT\CORECRT_WCONIO.H
D:\WINDOWS KITS\10\INCLUDE\10.0.17134.0\UCRT\CORECRT_WCTYPE.H
D:\WINDOWS KITS\10\INCLUDE\10.0.17134.0\UCRT\CORECRT_WDIRECT.H
D:\WINDOWS KITS\10\INCLUDE\10.0.17134.0\UCRT\CORECRT_WIO.H
D:\WINDOWS KITS\10\INCLUDE\10.0.17134.0\UCRT\CORECRT_SHARE.H
D:\WINDOWS KITS\10\INCLUDE\10.0.17134.0\UCRT\CORECRT_WPROCESS.H
D:\WINDOWS KITS\10\INCLUDE\10.0.17134.0\UCRT\CORECRT_WTIME.H
D:\WINDOWS KITS\10\INCLUDE\10.0.17134.0\UCRT\SYS\STAT.H
D:\WINDOWS KITS\10\INCLUDE\10.0.17134.0\UCRT\SYS\TYPES.H
D:\VISUAL STUDIO\VC\TOOLS\MSVC\14.15.26726\INCLUDE\NEW
D:\VISUAL STUDIO\VC\TOOLS\MSVC\14.15.26726\INCLUDE\XUTILITY
D:\VISUAL STUDIO\VC\TOOLS\MSVC\14.15.26726\INCLUDE\UTILITY
D:\VISUAL STUDIO\VC\TOOLS\MSVC\14.15.26726\INCLUDE\IOSFWD
D:\VISUAL STUDIO\VC\TOOLS\MSVC\14.15.26726\INCLUDE\XATOMIC0.H
D:\VISUAL STUDIO\VC\TOOLS\MSVC\14.15.26726\INCLUDE\INTRIN0.H
D:\VISUAL STUDIO\VC\TOOLS\MSVC\14.15.26726\INCLUDE\TYPEINFO
D:\VISUAL STUDIO\VC\TOOLS\MSVC\14.15.26726\INCLUDE\VCRUNTIME_TYPEINFO.H
D:\VISUAL STUDIO\VC\TOOLS\MSVC\14.15.26726\INCLUDE\XLOCINFO
D:\VISUAL STUDIO\VC\TOOLS\MSVC\14.15.26726\INCLUDE\XLOCINFO.H
D:\WINDOWS KITS\10\INCLUDE\10.0.17134.0\UCRT\CTYPE.H
D:\WINDOWS KITS\10\INCLUDE\10.0.17134.0\UCRT\LOCALE.H
D:\VISUAL STUDIO\VC\TOOLS\MSVC\14.15.26726\INCLUDE\MEMORY
D:\VISUAL STUDIO\VC\TOOLS\MSVC\14.15.26726\INCLUDE\XMEMORY
D:\VISUAL STUDIO\VC\TOOLS\MSVC\14.15.26726\INCLUDE\XFACET
D:\VISUAL STUDIO\VC\TOOLS\MSVC\14.15.26726\INCLUDE\SYSTEM_ERROR
D:\VISUAL STUDIO\VC\TOOLS\MSVC\14.15.26726\INCLUDE\CERRNO
D:\VISUAL STUDIO\VC\TOOLS\MSVC\14.15.26726\INCLUDE\XCALL_ONCE.H
D:\VISUAL STUDIO\VC\TOOLS\MSVC\14.15.26726\INCLUDE\XERRC.H
D:\WINDOWS KITS\10\INCLUDE\10.0.17134.0\UCRT\SHARE.H
D:\SABOTEUR2\SABOTEUR\SABOTEUR\BEGINCARD.H
D:\VISUAL STUDIO\VC\TOOLS\MSVC\14.15.26726\INCLUDE\ARRAY
D:\VISUAL STUDIO\VC\TOOLS\MSVC\14.15.26726\INCLUDE\ALGORITHM
D:\VISUAL STUDIO\VC\TOOLS\MSVC\14.15.26726\INCLUDE\ITERATOR
D:\VISUAL STUDIO\VC\TOOLS\MSVC\14.15.26726\INCLUDE\TUPLE
D:\VISUAL STUDIO\VC\TOOLS\MSVC\14.15.26726\INCLUDE\OPTIONAL
D:\VISUAL STUDIO\VC\TOOLS\MSVC\14.15.26726\INCLUDE\XSMF_CONTROL.H
D:\VISUAL STUDIO\VC\TOOLS\MSVC\14.15.26726\INCLUDE\VARIANT
D:\SABOTEUR2\SABOTEUR\SABOTEUR\PLAYER.H
D:\SABOTEUR2\SABOTEUR\SABOTEUR\ACTIONCARD.H
D:\SABOTEUR2\SABOTEUR\SABOTEUR\DWARFCARD.H
D:\VISUAL STUDIO\VC\TOOLS\MSVC\14.15.26726\INCLUDE\STRING
D:\VISUAL STUDIO\VC\TOOLS\MSVC\14.15.26726\INCLUDE\XSTRING_INSERT.H
D:\VISUAL STUDIO\VC\TOOLS\MSVC\14.15.26726\INCLUDE\XPOLYMORPHIC_ALLOCATOR.H
D:\VISUAL STUDIO\VC\TOOLS\MSVC\14.15.26726\INCLUDE\VECTOR
^D:\SABOTEUR2\SABOTEUR\SABOTEUR\DWARFCARD.CPP
D:\SABOTEUR2\SABOTEUR\SABOTEUR\DWARFCARD.H
D:\VISUAL STUDIO\VC\TOOLS\MSVC\14.15.26726\INCLUDE\IOSTREAM
D:\VISUAL STUDIO\VC\TOOLS\MSVC\14.15.26726\INCLUDE\ISTREAM
D:\VISUAL STUDIO\VC\TOOLS\MSVC\14.15.26726\INCLUDE\OSTREAM
D:\VISUAL STUDIO\VC\TOOLS\MSVC\14.15.26726\INCLUDE\IOS
D:\VISUAL STUDIO\VC\TOOLS\MSVC\14.15.26726\INCLUDE\XLOCNUM
D:\VISUAL STUDIO\VC\TOOLS\MSVC\14.15.26726\INCLUDE\CLIMITS
D:\VISUAL STUDIO\VC\TOOLS\MSVC\14.15.26726\INCLUDE\YVALS.H
D:\VISUAL STUDIO\VC\TOOLS\MSVC\14.15.26726\INCLUDE\YVALS_CORE.H
D:\VISUAL STUDIO\VC\TOOLS\MSVC\14.15.26726\INCLUDE\XKEYCHECK.H
D:\VISUAL STUDIO\VC\TOOLS\MSVC\14.15.26726\INCLUDE\CRTDEFS.H
D:\VISUAL STUDIO\VC\TOOLS\MSVC\14.15.26726\INCLUDE\VCRUNTIME.H
D:\VISUAL STUDIO\VC\TOOLS\MSVC\14.15.26726\INCLUDE\SAL.H
D:\VISUAL STUDIO\VC\TOOLS\MSVC\14.15.26726\INCLUDE\CONCURRENCYSAL.H
D:\VISUAL STUDIO\VC\TOOLS\MSVC\14.15.26726\INCLUDE\VADEFS.H
D:\WINDOWS KITS\10\INCLUDE\10.0.17134.0\UCRT\CORECRT.H
D:\WINDOWS KITS\10\INCLUDE\10.0.17134.0\UCRT\CRTDBG.H
D:\VISUAL STUDIO\VC\TOOLS\MSVC\14.15.26726\INCLUDE\VCRUNTIME_NEW_DEBUG.H
D:\VISUAL STUDIO\VC\TOOLS\MSVC\14.15.26726\INCLUDE\VCRUNTIME_NEW.H
D:\VISUAL STUDIO\VC\TOOLS\MSVC\14.15.26726\INCLUDE\USE_ANSI.H
D:\VISUAL STUDIO\VC\TOOLS\MSVC\14.15.26726\INCLUDE\LIMITS.H
D:\VISUAL STUDIO\VC\TOOLS\MSVC\14.15.26726\INCLUDE\CMATH
D:\VISUAL STUDIO\VC\TOOLS\MSVC\14.15.26726\INCLUDE\CSTDLIB
D:\WINDOWS KITS\10\INCLUDE\10.0.17134.0\UCRT\STDLIB.H
D:\WINDOWS KITS\10\INCLUDE\10.0.17134.0\UCRT\CORECRT_MALLOC.H
D:\WINDOWS KITS\10\INCLUDE\10.0.17134.0\UCRT\CORECRT_SEARCH.H
D:\WINDOWS KITS\10\INCLUDE\10.0.17134.0\UCRT\STDDEF.H
D:\WINDOWS KITS\10\INCLUDE\10.0.17134.0\UCRT\CORECRT_WSTDLIB.H
D:\WINDOWS KITS\10\INCLUDE\10.0.17134.0\UCRT\MATH.H
D:\WINDOWS KITS\10\INCLUDE\10.0.17134.0\UCRT\CORECRT_MATH.H
D:\VISUAL STUDIO\VC\TOOLS\MSVC\14.15.26726\INCLUDE\XTGMATH.H
D:\VISUAL STUDIO\VC\TOOLS\MSVC\14.15.26726\INCLUDE\XTR1COMMON
D:\VISUAL STUDIO\VC\TOOLS\MSVC\14.15.26726\INCLUDE\CSTDIO
D:\WINDOWS KITS\10\INCLUDE\10.0.17134.0\UCRT\STDIO.H
D:\WINDOWS KITS\10\INCLUDE\10.0.17134.0\UCRT\CORECRT_WSTDIO.H
D:\WINDOWS KITS\10\INCLUDE\10.0.17134.0\UCRT\CORECRT_STDIO_CONFIG.H
D:\VISUAL STUDIO\VC\TOOLS\MSVC\14.15.26726\INCLUDE\STREAMBUF
D:\VISUAL STUDIO\VC\TOOLS\MSVC\14.15.26726\INCLUDE\XIOSBASE
D:\VISUAL STUDIO\VC\TOOLS\MSVC\14.15.26726\INCLUDE\XLOCALE
D:\VISUAL STUDIO\VC\TOOLS\MSVC\14.15.26726\INCLUDE\CSTRING
D:\WINDOWS KITS\10\INCLUDE\10.0.17134.0\UCRT\STRING.H
D:\WINDOWS KITS\10\INCLUDE\10.0.17134.0\UCRT\CORECRT_MEMORY.H
D:\WINDOWS KITS\10\INCLUDE\10.0.17134.0\UCRT\CORECRT_MEMCPY_S.H
D:\WINDOWS KITS\10\INCLUDE\10.0.17134.0\UCRT\ERRNO.H
D:\VISUAL STUDIO\VC\TOOLS\MSVC\14.15.26726\INCLUDE\VCRUNTIME_STRING.H
D:\WINDOWS KITS\10\INCLUDE\10.0.17134.0\UCRT\CORECRT_WSTRING.H
D:\VISUAL STUDIO\VC\TOOLS\MSVC\14.15.26726\INCLUDE\STDEXCEPT
D:\VISUAL STUDIO\VC\TOOLS\MSVC\14.15.26726\INCLUDE\EXCEPTION
D:\VISUAL STUDIO\VC\TOOLS\MSVC\14.15.26726\INCLUDE\TYPE_TRAITS
D:\VISUAL STUDIO\VC\TOOLS\MSVC\14.15.26726\INCLUDE\XSTDDEF
D:\VISUAL STUDIO\VC\TOOLS\MSVC\14.15.26726\INCLUDE\CSTDDEF
D:\VISUAL STUDIO\VC\TOOLS\MSVC\14.15.26726\INCLUDE\INITIALIZER_LIST
D:\WINDOWS KITS\10\INCLUDE\10.0.17134.0\UCRT\MALLOC.H
D:\VISUAL STUDIO\VC\TOOLS\MSVC\14.15.26726\INCLUDE\VCRUNTIME_EXCEPTION.H
D:\VISUAL STUDIO\VC\TOOLS\MSVC\14.15.26726\INCLUDE\EH.H
D:\WINDOWS KITS\10\INCLUDE\10.0.17134.0\UCRT\CORECRT_TERMINATE.H
D:\VISUAL STUDIO\VC\TOOLS\MSVC\14.15.26726\INCLUDE\XSTRING
D:\VISUAL STUDIO\VC\TOOLS\MSVC\14.15.26726\INCLUDE\XMEMORY0
D:\VISUAL STUDIO\VC\TOOLS\MSVC\14.15.26726\INCLUDE\CSTDINT
D:\VISUAL STUDIO\VC\TOOLS\MSVC\14.15.26726\INCLUDE\STDINT.H
D:\VISUAL STUDIO\VC\TOOLS\MSVC\14.15.26726\INCLUDE\LIMITS
D:\VISUAL STUDIO\VC\TOOLS\MSVC\14.15.26726\INCLUDE\YMATH.H
D:\VISUAL STUDIO\VC\TOOLS\MSVC\14.15.26726\INCLUDE\CFLOAT
D:\WINDOWS KITS\10\INCLUDE\10.0.17134.0\UCRT\FLOAT.H
D:\VISUAL STUDIO\VC\TOOLS\MSVC\14.15.26726\INCLUDE\CWCHAR
D:\WINDOWS KITS\10\INCLUDE\10.0.17134.0\UCRT\WCHAR.H
D:\WINDOWS KITS\10\INCLUDE\10.0.17134.0\UCRT\CORECRT_WCONIO.H
D:\WINDOWS KITS\10\INCLUDE\10.0.17134.0\UCRT\CORECRT_WCTYPE.H
D:\WINDOWS KITS\10\INCLUDE\10.0.17134.0\UCRT\CORECRT_WDIRECT.H
D:\WINDOWS KITS\10\INCLUDE\10.0.17134.0\UCRT\CORECRT_WIO.H
D:\WINDOWS KITS\10\INCLUDE\10.0.17134.0\UCRT\CORECRT_SHARE.H
D:\WINDOWS KITS\10\INCLUDE\10.0.17134.0\UCRT\CORECRT_WPROCESS.H
D:\WINDOWS KITS\10\INCLUDE\10.0.17134.0\UCRT\CORECRT_WTIME.H
D:\WINDOWS KITS\10\INCLUDE\10.0.17134.0\UCRT\SYS\STAT.H
D:\WINDOWS KITS\10\INCLUDE\10.0.17134.0\UCRT\SYS\TYPES.H
D:\VISUAL STUDIO\VC\TOOLS\MSVC\14.15.26726\INCLUDE\NEW
D:\VISUAL STUDIO\VC\TOOLS\MSVC\14.15.26726\INCLUDE\XUTILITY
D:\VISUAL STUDIO\VC\TOOLS\MSVC\14.15.26726\INCLUDE\UTILITY
D:\VISUAL STUDIO\VC\TOOLS\MSVC\14.15.26726\INCLUDE\IOSFWD
D:\VISUAL STUDIO\VC\TOOLS\MSVC\14.15.26726\INCLUDE\XATOMIC0.H
D:\VISUAL STUDIO\VC\TOOLS\MSVC\14.15.26726\INCLUDE\INTRIN0.H
D:\VISUAL STUDIO\VC\TOOLS\MSVC\14.15.26726\INCLUDE\TYPEINFO
D:\VISUAL STUDIO\VC\TOOLS\MSVC\14.15.26726\INCLUDE\VCRUNTIME_TYPEINFO.H
D:\VISUAL STUDIO\VC\TOOLS\MSVC\14.15.26726\INCLUDE\XLOCINFO
D:\VISUAL STUDIO\VC\TOOLS\MSVC\14.15.26726\INCLUDE\XLOCINFO.H
D:\WINDOWS KITS\10\INCLUDE\10.0.17134.0\UCRT\CTYPE.H
D:\WINDOWS KITS\10\INCLUDE\10.0.17134.0\UCRT\LOCALE.H
D:\VISUAL STUDIO\VC\TOOLS\MSVC\14.15.26726\INCLUDE\MEMORY
D:\VISUAL STUDIO\VC\TOOLS\MSVC\14.15.26726\INCLUDE\XMEMORY
D:\VISUAL STUDIO\VC\TOOLS\MSVC\14.15.26726\INCLUDE\XFACET
D:\VISUAL STUDIO\VC\TOOLS\MSVC\14.15.26726\INCLUDE\SYSTEM_ERROR
D:\VISUAL STUDIO\VC\TOOLS\MSVC\14.15.26726\INCLUDE\CERRNO
D:\VISUAL STUDIO\VC\TOOLS\MSVC\14.15.26726\INCLUDE\XCALL_ONCE.H
D:\VISUAL STUDIO\VC\TOOLS\MSVC\14.15.26726\INCLUDE\XERRC.H
D:\WINDOWS KITS\10\INCLUDE\10.0.17134.0\UCRT\SHARE.H
^D:\SABOTEUR2\SABOTEUR\SABOTEUR\GOLDCARD.CPP
D:\SABOTEUR2\SABOTEUR\SABOTEUR\GOLDCARD.H
D:\VISUAL STUDIO\VC\TOOLS\MSVC\14.15.26726\INCLUDE\IOSTREAM
D:\VISUAL STUDIO\VC\TOOLS\MSVC\14.15.26726\INCLUDE\ISTREAM
D:\VISUAL STUDIO\VC\TOOLS\MSVC\14.15.26726\INCLUDE\OSTREAM
D:\VISUAL STUDIO\VC\TOOLS\MSVC\14.15.26726\INCLUDE\IOS
D:\VISUAL STUDIO\VC\TOOLS\MSVC\14.15.26726\INCLUDE\XLOCNUM
D:\VISUAL STUDIO\VC\TOOLS\MSVC\14.15.26726\INCLUDE\CLIMITS
D:\VISUAL STUDIO\VC\TOOLS\MSVC\14.15.26726\INCLUDE\YVALS.H
D:\VISUAL STUDIO\VC\TOOLS\MSVC\14.15.26726\INCLUDE\YVALS_CORE.H
D:\VISUAL STUDIO\VC\TOOLS\MSVC\14.15.26726\INCLUDE\XKEYCHECK.H
D:\VISUAL STUDIO\VC\TOOLS\MSVC\14.15.26726\INCLUDE\CRTDEFS.H
D:\VISUAL STUDIO\VC\TOOLS\MSVC\14.15.26726\INCLUDE\VCRUNTIME.H
D:\VISUAL STUDIO\VC\TOOLS\MSVC\14.15.26726\INCLUDE\SAL.H
D:\VISUAL STUDIO\VC\TOOLS\MSVC\14.15.26726\INCLUDE\CONCURRENCYSAL.H
D:\VISUAL STUDIO\VC\TOOLS\MSVC\14.15.26726\INCLUDE\VADEFS.H
D:\WINDOWS KITS\10\INCLUDE\10.0.17134.0\UCRT\CORECRT.H
D:\WINDOWS KITS\10\INCLUDE\10.0.17134.0\UCRT\CRTDBG.H
D:\VISUAL STUDIO\VC\TOOLS\MSVC\14.15.26726\INCLUDE\VCRUNTIME_NEW_DEBUG.H
D:\VISUAL STUDIO\VC\TOOLS\MSVC\14.15.26726\INCLUDE\VCRUNTIME_NEW.H
D:\VISUAL STUDIO\VC\TOOLS\MSVC\14.15.26726\INCLUDE\USE_ANSI.H
D:\VISUAL STUDIO\VC\TOOLS\MSVC\14.15.26726\INCLUDE\LIMITS.H
D:\VISUAL STUDIO\VC\TOOLS\MSVC\14.15.26726\INCLUDE\CMATH
D:\VISUAL STUDIO\VC\TOOLS\MSVC\14.15.26726\INCLUDE\CSTDLIB
D:\WINDOWS KITS\10\INCLUDE\10.0.17134.0\UCRT\STDLIB.H
D:\WINDOWS KITS\10\INCLUDE\10.0.17134.0\UCRT\CORECRT_MALLOC.H
D:\WINDOWS KITS\10\INCLUDE\10.0.17134.0\UCRT\CORECRT_SEARCH.H
D:\WINDOWS KITS\10\INCLUDE\10.0.17134.0\UCRT\STDDEF.H
D:\WINDOWS KITS\10\INCLUDE\10.0.17134.0\UCRT\CORECRT_WSTDLIB.H
D:\WINDOWS KITS\10\INCLUDE\10.0.17134.0\UCRT\MATH.H
D:\WINDOWS KITS\10\INCLUDE\10.0.17134.0\UCRT\CORECRT_MATH.H
D:\VISUAL STUDIO\VC\TOOLS\MSVC\14.15.26726\INCLUDE\XTGMATH.H
D:\VISUAL STUDIO\VC\TOOLS\MSVC\14.15.26726\INCLUDE\XTR1COMMON
D:\VISUAL STUDIO\VC\TOOLS\MSVC\14.15.26726\INCLUDE\CSTDIO
D:\WINDOWS KITS\10\INCLUDE\10.0.17134.0\UCRT\STDIO.H
D:\WINDOWS KITS\10\INCLUDE\10.0.17134.0\UCRT\CORECRT_WSTDIO.H
D:\WINDOWS KITS\10\INCLUDE\10.0.17134.0\UCRT\CORECRT_STDIO_CONFIG.H
D:\VISUAL STUDIO\VC\TOOLS\MSVC\14.15.26726\INCLUDE\STREAMBUF
D:\VISUAL STUDIO\VC\TOOLS\MSVC\14.15.26726\INCLUDE\XIOSBASE
D:\VISUAL STUDIO\VC\TOOLS\MSVC\14.15.26726\INCLUDE\XLOCALE
D:\VISUAL STUDIO\VC\TOOLS\MSVC\14.15.26726\INCLUDE\CSTRING
D:\WINDOWS KITS\10\INCLUDE\10.0.17134.0\UCRT\STRING.H
D:\WINDOWS KITS\10\INCLUDE\10.0.17134.0\UCRT\CORECRT_MEMORY.H
D:\WINDOWS KITS\10\INCLUDE\10.0.17134.0\UCRT\CORECRT_MEMCPY_S.H
D:\WINDOWS KITS\10\INCLUDE\10.0.17134.0\UCRT\ERRNO.H
D:\VISUAL STUDIO\VC\TOOLS\MSVC\14.15.26726\INCLUDE\VCRUNTIME_STRING.H
D:\WINDOWS KITS\10\INCLUDE\10.0.17134.0\UCRT\CORECRT_WSTRING.H
D:\VISUAL STUDIO\VC\TOOLS\MSVC\14.15.26726\INCLUDE\STDEXCEPT
D:\VISUAL STUDIO\VC\TOOLS\MSVC\14.15.26726\INCLUDE\EXCEPTION
D:\VISUAL STUDIO\VC\TOOLS\MSVC\14.15.26726\INCLUDE\TYPE_TRAITS
D:\VISUAL STUDIO\VC\TOOLS\MSVC\14.15.26726\INCLUDE\XSTDDEF
D:\VISUAL STUDIO\VC\TOOLS\MSVC\14.15.26726\INCLUDE\CSTDDEF
D:\VISUAL STUDIO\VC\TOOLS\MSVC\14.15.26726\INCLUDE\INITIALIZER_LIST
D:\WINDOWS KITS\10\INCLUDE\10.0.17134.0\UCRT\MALLOC.H
D:\VISUAL STUDIO\VC\TOOLS\MSVC\14.15.26726\INCLUDE\VCRUNTIME_EXCEPTION.H
D:\VISUAL STUDIO\VC\TOOLS\MSVC\14.15.26726\INCLUDE\EH.H
D:\WINDOWS KITS\10\INCLUDE\10.0.17134.0\UCRT\CORECRT_TERMINATE.H
D:\VISUAL STUDIO\VC\TOOLS\MSVC\14.15.26726\INCLUDE\XSTRING
D:\VISUAL STUDIO\VC\TOOLS\MSVC\14.15.26726\INCLUDE\XMEMORY0
D:\VISUAL STUDIO\VC\TOOLS\MSVC\14.15.26726\INCLUDE\CSTDINT
D:\VISUAL STUDIO\VC\TOOLS\MSVC\14.15.26726\INCLUDE\STDINT.H
D:\VISUAL STUDIO\VC\TOOLS\MSVC\14.15.26726\INCLUDE\LIMITS
D:\VISUAL STUDIO\VC\TOOLS\MSVC\14.15.26726\INCLUDE\YMATH.H
D:\VISUAL STUDIO\VC\TOOLS\MSVC\14.15.26726\INCLUDE\CFLOAT
D:\WINDOWS KITS\10\INCLUDE\10.0.17134.0\UCRT\FLOAT.H
D:\VISUAL STUDIO\VC\TOOLS\MSVC\14.15.26726\INCLUDE\CWCHAR
D:\WINDOWS KITS\10\INCLUDE\10.0.17134.0\UCRT\WCHAR.H
D:\WINDOWS KITS\10\INCLUDE\10.0.17134.0\UCRT\CORECRT_WCONIO.H
D:\WINDOWS KITS\10\INCLUDE\10.0.17134.0\UCRT\CORECRT_WCTYPE.H
D:\WINDOWS KITS\10\INCLUDE\10.0.17134.0\UCRT\CORECRT_WDIRECT.H
D:\WINDOWS KITS\10\INCLUDE\10.0.17134.0\UCRT\CORECRT_WIO.H
D:\WINDOWS KITS\10\INCLUDE\10.0.17134.0\UCRT\CORECRT_SHARE.H
D:\WINDOWS KITS\10\INCLUDE\10.0.17134.0\UCRT\CORECRT_WPROCESS.H
D:\WINDOWS KITS\10\INCLUDE\10.0.17134.0\UCRT\CORECRT_WTIME.H
D:\WINDOWS KITS\10\INCLUDE\10.0.17134.0\UCRT\SYS\STAT.H
D:\WINDOWS KITS\10\INCLUDE\10.0.17134.0\UCRT\SYS\TYPES.H
D:\VISUAL STUDIO\VC\TOOLS\MSVC\14.15.26726\INCLUDE\NEW
D:\VISUAL STUDIO\VC\TOOLS\MSVC\14.15.26726\INCLUDE\XUTILITY
D:\VISUAL STUDIO\VC\TOOLS\MSVC\14.15.26726\INCLUDE\UTILITY
D:\VISUAL STUDIO\VC\TOOLS\MSVC\14.15.26726\INCLUDE\IOSFWD
D:\VISUAL STUDIO\VC\TOOLS\MSVC\14.15.26726\INCLUDE\XATOMIC0.H
D:\VISUAL STUDIO\VC\TOOLS\MSVC\14.15.26726\INCLUDE\INTRIN0.H
D:\VISUAL STUDIO\VC\TOOLS\MSVC\14.15.26726\INCLUDE\TYPEINFO
D:\VISUAL STUDIO\VC\TOOLS\MSVC\14.15.26726\INCLUDE\VCRUNTIME_TYPEINFO.H
D:\VISUAL STUDIO\VC\TOOLS\MSVC\14.15.26726\INCLUDE\XLOCINFO
D:\VISUAL STUDIO\VC\TOOLS\MSVC\14.15.26726\INCLUDE\XLOCINFO.H
D:\WINDOWS KITS\10\INCLUDE\10.0.17134.0\UCRT\CTYPE.H
D:\WINDOWS KITS\10\INCLUDE\10.0.17134.0\UCRT\LOCALE.H
D:\VISUAL STUDIO\VC\TOOLS\MSVC\14.15.26726\INCLUDE\MEMORY
D:\VISUAL STUDIO\VC\TOOLS\MSVC\14.15.26726\INCLUDE\XMEMORY
D:\VISUAL STUDIO\VC\TOOLS\MSVC\14.15.26726\INCLUDE\XFACET
D:\VISUAL STUDIO\VC\TOOLS\MSVC\14.15.26726\INCLUDE\SYSTEM_ERROR
D:\VISUAL STUDIO\VC\TOOLS\MSVC\14.15.26726\INCLUDE\CERRNO
D:\VISUAL STUDIO\VC\TOOLS\MSVC\14.15.26726\INCLUDE\XCALL_ONCE.H
D:\VISUAL STUDIO\VC\TOOLS\MSVC\14.15.26726\INCLUDE\XERRC.H
D:\WINDOWS KITS\10\INCLUDE\10.0.17134.0\UCRT\SHARE.H
^D:\SABOTEUR2\SABOTEUR\SABOTEUR\PATHCARD.CPP
D:\SABOTEUR2\SABOTEUR\SABOTEUR\PATHCARD.H
D:\VISUAL STUDIO\VC\TOOLS\MSVC\14.15.26726\INCLUDE\IOSTREAM
D:\VISUAL STUDIO\VC\TOOLS\MSVC\14.15.26726\INCLUDE\ISTREAM
D:\VISUAL STUDIO\VC\TOOLS\MSVC\14.15.26726\INCLUDE\OSTREAM
D:\VISUAL STUDIO\VC\TOOLS\MSVC\14.15.26726\INCLUDE\IOS
D:\VISUAL STUDIO\VC\TOOLS\MSVC\14.15.26726\INCLUDE\XLOCNUM
D:\VISUAL STUDIO\VC\TOOLS\MSVC\14.15.26726\INCLUDE\CLIMITS
D:\VISUAL STUDIO\VC\TOOLS\MSVC\14.15.26726\INCLUDE\YVALS.H
D:\VISUAL STUDIO\VC\TOOLS\MSVC\14.15.26726\INCLUDE\YVALS_CORE.H
D:\VISUAL STUDIO\VC\TOOLS\MSVC\14.15.26726\INCLUDE\XKEYCHECK.H
D:\VISUAL STUDIO\VC\TOOLS\MSVC\14.15.26726\INCLUDE\CRTDEFS.H
D:\VISUAL STUDIO\VC\TOOLS\MSVC\14.15.26726\INCLUDE\VCRUNTIME.H
D:\VISUAL STUDIO\VC\TOOLS\MSVC\14.15.26726\INCLUDE\SAL.H
D:\VISUAL STUDIO\VC\TOOLS\MSVC\14.15.26726\INCLUDE\CONCURRENCYSAL.H
D:\VISUAL STUDIO\VC\TOOLS\MSVC\14.15.26726\INCLUDE\VADEFS.H
D:\WINDOWS KITS\10\INCLUDE\10.0.17134.0\UCRT\CORECRT.H
D:\WINDOWS KITS\10\INCLUDE\10.0.17134.0\UCRT\CRTDBG.H
D:\VISUAL STUDIO\VC\TOOLS\MSVC\14.15.26726\INCLUDE\VCRUNTIME_NEW_DEBUG.H
D:\VISUAL STUDIO\VC\TOOLS\MSVC\14.15.26726\INCLUDE\VCRUNTIME_NEW.H
D:\VISUAL STUDIO\VC\TOOLS\MSVC\14.15.26726\INCLUDE\USE_ANSI.H
D:\VISUAL STUDIO\VC\TOOLS\MSVC\14.15.26726\INCLUDE\LIMITS.H
D:\VISUAL STUDIO\VC\TOOLS\MSVC\14.15.26726\INCLUDE\CMATH
D:\VISUAL STUDIO\VC\TOOLS\MSVC\14.15.26726\INCLUDE\CSTDLIB
D:\WINDOWS KITS\10\INCLUDE\10.0.17134.0\UCRT\STDLIB.H
D:\WINDOWS KITS\10\INCLUDE\10.0.17134.0\UCRT\CORECRT_MALLOC.H
D:\WINDOWS KITS\10\INCLUDE\10.0.17134.0\UCRT\CORECRT_SEARCH.H
D:\WINDOWS KITS\10\INCLUDE\10.0.17134.0\UCRT\STDDEF.H
D:\WINDOWS KITS\10\INCLUDE\10.0.17134.0\UCRT\CORECRT_WSTDLIB.H
D:\WINDOWS KITS\10\INCLUDE\10.0.17134.0\UCRT\MATH.H
D:\WINDOWS KITS\10\INCLUDE\10.0.17134.0\UCRT\CORECRT_MATH.H
D:\VISUAL STUDIO\VC\TOOLS\MSVC\14.15.26726\INCLUDE\XTGMATH.H
D:\VISUAL STUDIO\VC\TOOLS\MSVC\14.15.26726\INCLUDE\XTR1COMMON
D:\VISUAL STUDIO\VC\TOOLS\MSVC\14.15.26726\INCLUDE\CSTDIO
D:\WINDOWS KITS\10\INCLUDE\10.0.17134.0\UCRT\STDIO.H
D:\WINDOWS KITS\10\INCLUDE\10.0.17134.0\UCRT\CORECRT_WSTDIO.H
D:\WINDOWS KITS\10\INCLUDE\10.0.17134.0\UCRT\CORECRT_STDIO_CONFIG.H
D:\VISUAL STUDIO\VC\TOOLS\MSVC\14.15.26726\INCLUDE\STREAMBUF
D:\VISUAL STUDIO\VC\TOOLS\MSVC\14.15.26726\INCLUDE\XIOSBASE
D:\VISUAL STUDIO\VC\TOOLS\MSVC\14.15.26726\INCLUDE\XLOCALE
D:\VISUAL STUDIO\VC\TOOLS\MSVC\14.15.26726\INCLUDE\CSTRING
D:\WINDOWS KITS\10\INCLUDE\10.0.17134.0\UCRT\STRING.H
D:\WINDOWS KITS\10\INCLUDE\10.0.17134.0\UCRT\CORECRT_MEMORY.H
D:\WINDOWS KITS\10\INCLUDE\10.0.17134.0\UCRT\CORECRT_MEMCPY_S.H
D:\WINDOWS KITS\10\INCLUDE\10.0.17134.0\UCRT\ERRNO.H
D:\VISUAL STUDIO\VC\TOOLS\MSVC\14.15.26726\INCLUDE\VCRUNTIME_STRING.H
D:\WINDOWS KITS\10\INCLUDE\10.0.17134.0\UCRT\CORECRT_WSTRING.H
D:\VISUAL STUDIO\VC\TOOLS\MSVC\14.15.26726\INCLUDE\STDEXCEPT
D:\VISUAL STUDIO\VC\TOOLS\MSVC\14.15.26726\INCLUDE\EXCEPTION
D:\VISUAL STUDIO\VC\TOOLS\MSVC\14.15.26726\INCLUDE\TYPE_TRAITS
D:\VISUAL STUDIO\VC\TOOLS\MSVC\14.15.26726\INCLUDE\XSTDDEF
D:\VISUAL STUDIO\VC\TOOLS\MSVC\14.15.26726\INCLUDE\CSTDDEF
D:\VISUAL STUDIO\VC\TOOLS\MSVC\14.15.26726\INCLUDE\INITIALIZER_LIST
D:\WINDOWS KITS\10\INCLUDE\10.0.17134.0\UCRT\MALLOC.H
D:\VISUAL STUDIO\VC\TOOLS\MSVC\14.15.26726\INCLUDE\VCRUNTIME_EXCEPTION.H
D:\VISUAL STUDIO\VC\TOOLS\MSVC\14.15.26726\INCLUDE\EH.H
D:\WINDOWS KITS\10\INCLUDE\10.0.17134.0\UCRT\CORECRT_TERMINATE.H
D:\VISUAL STUDIO\VC\TOOLS\MSVC\14.15.26726\INCLUDE\XSTRING
D:\VISUAL STUDIO\VC\TOOLS\MSVC\14.15.26726\INCLUDE\XMEMORY0
D:\VISUAL STUDIO\VC\TOOLS\MSVC\14.15.26726\INCLUDE\CSTDINT
D:\VISUAL STUDIO\VC\TOOLS\MSVC\14.15.26726\INCLUDE\STDINT.H
D:\VISUAL STUDIO\VC\TOOLS\MSVC\14.15.26726\INCLUDE\LIMITS
D:\VISUAL STUDIO\VC\TOOLS\MSVC\14.15.26726\INCLUDE\YMATH.H
D:\VISUAL STUDIO\VC\TOOLS\MSVC\14.15.26726\INCLUDE\CFLOAT
D:\WINDOWS KITS\10\INCLUDE\10.0.17134.0\UCRT\FLOAT.H
D:\VISUAL STUDIO\VC\TOOLS\MSVC\14.15.26726\INCLUDE\CWCHAR
D:\WINDOWS KITS\10\INCLUDE\10.0.17134.0\UCRT\WCHAR.H
D:\WINDOWS KITS\10\INCLUDE\10.0.17134.0\UCRT\CORECRT_WCONIO.H
D:\WINDOWS KITS\10\INCLUDE\10.0.17134.0\UCRT\CORECRT_WCTYPE.H
D:\WINDOWS KITS\10\INCLUDE\10.0.17134.0\UCRT\CORECRT_WDIRECT.H
D:\WINDOWS KITS\10\INCLUDE\10.0.17134.0\UCRT\CORECRT_WIO.H
D:\WINDOWS KITS\10\INCLUDE\10.0.17134.0\UCRT\CORECRT_SHARE.H
D:\WINDOWS KITS\10\INCLUDE\10.0.17134.0\UCRT\CORECRT_WPROCESS.H
D:\WINDOWS KITS\10\INCLUDE\10.0.17134.0\UCRT\CORECRT_WTIME.H
D:\WINDOWS KITS\10\INCLUDE\10.0.17134.0\UCRT\SYS\STAT.H
D:\WINDOWS KITS\10\INCLUDE\10.0.17134.0\UCRT\SYS\TYPES.H
D:\VISUAL STUDIO\VC\TOOLS\MSVC\14.15.26726\INCLUDE\NEW
D:\VISUAL STUDIO\VC\TOOLS\MSVC\14.15.26726\INCLUDE\XUTILITY
D:\VISUAL STUDIO\VC\TOOLS\MSVC\14.15.26726\INCLUDE\UTILITY
D:\VISUAL STUDIO\VC\TOOLS\MSVC\14.15.26726\INCLUDE\IOSFWD
D:\VISUAL STUDIO\VC\TOOLS\MSVC\14.15.26726\INCLUDE\XATOMIC0.H
D:\VISUAL STUDIO\VC\TOOLS\MSVC\14.15.26726\INCLUDE\INTRIN0.H
D:\VISUAL STUDIO\VC\TOOLS\MSVC\14.15.26726\INCLUDE\TYPEINFO
D:\VISUAL STUDIO\VC\TOOLS\MSVC\14.15.26726\INCLUDE\VCRUNTIME_TYPEINFO.H
D:\VISUAL STUDIO\VC\TOOLS\MSVC\14.15.26726\INCLUDE\XLOCINFO
D:\VISUAL STUDIO\VC\TOOLS\MSVC\14.15.26726\INCLUDE\XLOCINFO.H
D:\WINDOWS KITS\10\INCLUDE\10.0.17134.0\UCRT\CTYPE.H
D:\WINDOWS KITS\10\INCLUDE\10.0.17134.0\UCRT\LOCALE.H
D:\VISUAL STUDIO\VC\TOOLS\MSVC\14.15.26726\INCLUDE\MEMORY
D:\VISUAL STUDIO\VC\TOOLS\MSVC\14.15.26726\INCLUDE\XMEMORY
D:\VISUAL STUDIO\VC\TOOLS\MSVC\14.15.26726\INCLUDE\XFACET
D:\VISUAL STUDIO\VC\TOOLS\MSVC\14.15.26726\INCLUDE\SYSTEM_ERROR
D:\VISUAL STUDIO\VC\TOOLS\MSVC\14.15.26726\INCLUDE\CERRNO
D:\VISUAL STUDIO\VC\TOOLS\MSVC\14.15.26726\INCLUDE\XCALL_ONCE.H
D:\VISUAL STUDIO\VC\TOOLS\MSVC\14.15.26726\INCLUDE\XERRC.H
D:\WINDOWS KITS\10\INCLUDE\10.0.17134.0\UCRT\SHARE.H
^D:\SABOTEUR2\SABOTEUR\SABOTEUR\PLAYER.CPP
D:\SABOTEUR2\SABOTEUR\SABOTEUR\PLAYER.H
D:\SABOTEUR2\SABOTEUR\SABOTEUR\BOARD.H
D:\SABOTEUR2\SABOTEUR\SABOTEUR\PATHCARD.H
D:\VISUAL STUDIO\VC\TOOLS\MSVC\14.15.26726\INCLUDE\IOSTREAM
D:\VISUAL STUDIO\VC\TOOLS\MSVC\14.15.26726\INCLUDE\ISTREAM
D:\VISUAL STUDIO\VC\TOOLS\MSVC\14.15.26726\INCLUDE\OSTREAM
D:\VISUAL STUDIO\VC\TOOLS\MSVC\14.15.26726\INCLUDE\IOS
D:\VISUAL STUDIO\VC\TOOLS\MSVC\14.15.26726\INCLUDE\XLOCNUM
D:\VISUAL STUDIO\VC\TOOLS\MSVC\14.15.26726\INCLUDE\CLIMITS
D:\VISUAL STUDIO\VC\TOOLS\MSVC\14.15.26726\INCLUDE\YVALS.H
D:\VISUAL STUDIO\VC\TOOLS\MSVC\14.15.26726\INCLUDE\YVALS_CORE.H
D:\VISUAL STUDIO\VC\TOOLS\MSVC\14.15.26726\INCLUDE\XKEYCHECK.H
D:\VISUAL STUDIO\VC\TOOLS\MSVC\14.15.26726\INCLUDE\CRTDEFS.H
D:\VISUAL STUDIO\VC\TOOLS\MSVC\14.15.26726\INCLUDE\VCRUNTIME.H
D:\VISUAL STUDIO\VC\TOOLS\MSVC\14.15.26726\INCLUDE\SAL.H
D:\VISUAL STUDIO\VC\TOOLS\MSVC\14.15.26726\INCLUDE\CONCURRENCYSAL.H
D:\VISUAL STUDIO\VC\TOOLS\MSVC\14.15.26726\INCLUDE\VADEFS.H
D:\WINDOWS KITS\10\INCLUDE\10.0.17134.0\UCRT\CORECRT.H
D:\WINDOWS KITS\10\INCLUDE\10.0.17134.0\UCRT\CRTDBG.H
D:\VISUAL STUDIO\VC\TOOLS\MSVC\14.15.26726\INCLUDE\VCRUNTIME_NEW_DEBUG.H
D:\VISUAL STUDIO\VC\TOOLS\MSVC\14.15.26726\INCLUDE\VCRUNTIME_NEW.H
D:\VISUAL STUDIO\VC\TOOLS\MSVC\14.15.26726\INCLUDE\USE_ANSI.H
D:\VISUAL STUDIO\VC\TOOLS\MSVC\14.15.26726\INCLUDE\LIMITS.H
D:\VISUAL STUDIO\VC\TOOLS\MSVC\14.15.26726\INCLUDE\CMATH
D:\VISUAL STUDIO\VC\TOOLS\MSVC\14.15.26726\INCLUDE\CSTDLIB
D:\WINDOWS KITS\10\INCLUDE\10.0.17134.0\UCRT\STDLIB.H
D:\WINDOWS KITS\10\INCLUDE\10.0.17134.0\UCRT\CORECRT_MALLOC.H
D:\WINDOWS KITS\10\INCLUDE\10.0.17134.0\UCRT\CORECRT_SEARCH.H
D:\WINDOWS KITS\10\INCLUDE\10.0.17134.0\UCRT\STDDEF.H
D:\WINDOWS KITS\10\INCLUDE\10.0.17134.0\UCRT\CORECRT_WSTDLIB.H
D:\WINDOWS KITS\10\INCLUDE\10.0.17134.0\UCRT\MATH.H
D:\WINDOWS KITS\10\INCLUDE\10.0.17134.0\UCRT\CORECRT_MATH.H
D:\VISUAL STUDIO\VC\TOOLS\MSVC\14.15.26726\INCLUDE\XTGMATH.H
D:\VISUAL STUDIO\VC\TOOLS\MSVC\14.15.26726\INCLUDE\XTR1COMMON
D:\VISUAL STUDIO\VC\TOOLS\MSVC\14.15.26726\INCLUDE\CSTDIO
D:\WINDOWS KITS\10\INCLUDE\10.0.17134.0\UCRT\STDIO.H
D:\WINDOWS KITS\10\INCLUDE\10.0.17134.0\UCRT\CORECRT_WSTDIO.H
D:\WINDOWS KITS\10\INCLUDE\10.0.17134.0\UCRT\CORECRT_STDIO_CONFIG.H
D:\VISUAL STUDIO\VC\TOOLS\MSVC\14.15.26726\INCLUDE\STREAMBUF
D:\VISUAL STUDIO\VC\TOOLS\MSVC\14.15.26726\INCLUDE\XIOSBASE
D:\VISUAL STUDIO\VC\TOOLS\MSVC\14.15.26726\INCLUDE\XLOCALE
D:\VISUAL STUDIO\VC\TOOLS\MSVC\14.15.26726\INCLUDE\CSTRING
D:\WINDOWS KITS\10\INCLUDE\10.0.17134.0\UCRT\STRING.H
D:\WINDOWS KITS\10\INCLUDE\10.0.17134.0\UCRT\CORECRT_MEMORY.H
D:\WINDOWS KITS\10\INCLUDE\10.0.17134.0\UCRT\CORECRT_MEMCPY_S.H
D:\WINDOWS KITS\10\INCLUDE\10.0.17134.0\UCRT\ERRNO.H
D:\VISUAL STUDIO\VC\TOOLS\MSVC\14.15.26726\INCLUDE\VCRUNTIME_STRING.H
D:\WINDOWS KITS\10\INCLUDE\10.0.17134.0\UCRT\CORECRT_WSTRING.H
D:\VISUAL STUDIO\VC\TOOLS\MSVC\14.15.26726\INCLUDE\STDEXCEPT
D:\VISUAL STUDIO\VC\TOOLS\MSVC\14.15.26726\INCLUDE\EXCEPTION
D:\VISUAL STUDIO\VC\TOOLS\MSVC\14.15.26726\INCLUDE\TYPE_TRAITS
D:\VISUAL STUDIO\VC\TOOLS\MSVC\14.15.26726\INCLUDE\XSTDDEF
D:\VISUAL STUDIO\VC\TOOLS\MSVC\14.15.26726\INCLUDE\CSTDDEF
D:\VISUAL STUDIO\VC\TOOLS\MSVC\14.15.26726\INCLUDE\INITIALIZER_LIST
D:\WINDOWS KITS\10\INCLUDE\10.0.17134.0\UCRT\MALLOC.H
D:\VISUAL STUDIO\VC\TOOLS\MSVC\14.15.26726\INCLUDE\VCRUNTIME_EXCEPTION.H
D:\VISUAL STUDIO\VC\TOOLS\MSVC\14.15.26726\INCLUDE\EH.H
D:\WINDOWS KITS\10\INCLUDE\10.0.17134.0\UCRT\CORECRT_TERMINATE.H
D:\VISUAL STUDIO\VC\TOOLS\MSVC\14.15.26726\INCLUDE\XSTRING
D:\VISUAL STUDIO\VC\TOOLS\MSVC\14.15.26726\INCLUDE\XMEMORY0
D:\VISUAL STUDIO\VC\TOOLS\MSVC\14.15.26726\INCLUDE\CSTDINT
D:\VISUAL STUDIO\VC\TOOLS\MSVC\14.15.26726\INCLUDE\STDINT.H
D:\VISUAL STUDIO\VC\TOOLS\MSVC\14.15.26726\INCLUDE\LIMITS
D:\VISUAL STUDIO\VC\TOOLS\MSVC\14.15.26726\INCLUDE\YMATH.H
D:\VISUAL STUDIO\VC\TOOLS\MSVC\14.15.26726\INCLUDE\CFLOAT
D:\WINDOWS KITS\10\INCLUDE\10.0.17134.0\UCRT\FLOAT.H
D:\VISUAL STUDIO\VC\TOOLS\MSVC\14.15.26726\INCLUDE\CWCHAR
D:\WINDOWS KITS\10\INCLUDE\10.0.17134.0\UCRT\WCHAR.H
D:\WINDOWS KITS\10\INCLUDE\10.0.17134.0\UCRT\CORECRT_WCONIO.H
D:\WINDOWS KITS\10\INCLUDE\10.0.17134.0\UCRT\CORECRT_WCTYPE.H
D:\WINDOWS KITS\10\INCLUDE\10.0.17134.0\UCRT\CORECRT_WDIRECT.H
D:\WINDOWS KITS\10\INCLUDE\10.0.17134.0\UCRT\CORECRT_WIO.H
D:\WINDOWS KITS\10\INCLUDE\10.0.17134.0\UCRT\CORECRT_SHARE.H
D:\WINDOWS KITS\10\INCLUDE\10.0.17134.0\UCRT\CORECRT_WPROCESS.H
D:\WINDOWS KITS\10\INCLUDE\10.0.17134.0\UCRT\CORECRT_WTIME.H
D:\WINDOWS KITS\10\INCLUDE\10.0.17134.0\UCRT\SYS\STAT.H
D:\WINDOWS KITS\10\INCLUDE\10.0.17134.0\UCRT\SYS\TYPES.H
D:\VISUAL STUDIO\VC\TOOLS\MSVC\14.15.26726\INCLUDE\NEW
D:\VISUAL STUDIO\VC\TOOLS\MSVC\14.15.26726\INCLUDE\XUTILITY
D:\VISUAL STUDIO\VC\TOOLS\MSVC\14.15.26726\INCLUDE\UTILITY
D:\VISUAL STUDIO\VC\TOOLS\MSVC\14.15.26726\INCLUDE\IOSFWD
D:\VISUAL STUDIO\VC\TOOLS\MSVC\14.15.26726\INCLUDE\XATOMIC0.H
D:\VISUAL STUDIO\VC\TOOLS\MSVC\14.15.26726\INCLUDE\INTRIN0.H
D:\VISUAL STUDIO\VC\TOOLS\MSVC\14.15.26726\INCLUDE\TYPEINFO
D:\VISUAL STUDIO\VC\TOOLS\MSVC\14.15.26726\INCLUDE\VCRUNTIME_TYPEINFO.H
D:\VISUAL STUDIO\VC\TOOLS\MSVC\14.15.26726\INCLUDE\XLOCINFO
D:\VISUAL STUDIO\VC\TOOLS\MSVC\14.15.26726\INCLUDE\XLOCINFO.H
D:\WINDOWS KITS\10\INCLUDE\10.0.17134.0\UCRT\CTYPE.H
D:\WINDOWS KITS\10\INCLUDE\10.0.17134.0\UCRT\LOCALE.H
D:\VISUAL STUDIO\VC\TOOLS\MSVC\14.15.26726\INCLUDE\MEMORY
D:\VISUAL STUDIO\VC\TOOLS\MSVC\14.15.26726\INCLUDE\XMEMORY
D:\VISUAL STUDIO\VC\TOOLS\MSVC\14.15.26726\INCLUDE\XFACET
D:\VISUAL STUDIO\VC\TOOLS\MSVC\14.15.26726\INCLUDE\SYSTEM_ERROR
D:\VISUAL STUDIO\VC\TOOLS\MSVC\14.15.26726\INCLUDE\CERRNO
D:\VISUAL STUDIO\VC\TOOLS\MSVC\14.15.26726\INCLUDE\XCALL_ONCE.H
D:\VISUAL STUDIO\VC\TOOLS\MSVC\14.15.26726\INCLUDE\XERRC.H
D:\WINDOWS KITS\10\INCLUDE\10.0.17134.0\UCRT\SHARE.H
D:\SABOTEUR2\SABOTEUR\SABOTEUR\BEGINCARD.H
D:\VISUAL STUDIO\VC\TOOLS\MSVC\14.15.26726\INCLUDE\ARRAY
D:\VISUAL STUDIO\VC\TOOLS\MSVC\14.15.26726\INCLUDE\ALGORITHM
D:\VISUAL STUDIO\VC\TOOLS\MSVC\14.15.26726\INCLUDE\ITERATOR
D:\VISUAL STUDIO\VC\TOOLS\MSVC\14.15.26726\INCLUDE\TUPLE
D:\VISUAL STUDIO\VC\TOOLS\MSVC\14.15.26726\INCLUDE\OPTIONAL
D:\VISUAL STUDIO\VC\TOOLS\MSVC\14.15.26726\INCLUDE\XSMF_CONTROL.H
D:\VISUAL STUDIO\VC\TOOLS\MSVC\14.15.26726\INCLUDE\VARIANT
D:\SABOTEUR2\SABOTEUR\SABOTEUR\ACTIONCARD.H
D:\SABOTEUR2\SABOTEUR\SABOTEUR\DWARFCARD.H
D:\VISUAL STUDIO\VC\TOOLS\MSVC\14.15.26726\INCLUDE\STRING
D:\VISUAL STUDIO\VC\TOOLS\MSVC\14.15.26726\INCLUDE\XSTRING_INSERT.H
D:\VISUAL STUDIO\VC\TOOLS\MSVC\14.15.26726\INCLUDE\XPOLYMORPHIC_ALLOCATOR.H
D:\VISUAL STUDIO\VC\TOOLS\MSVC\14.15.26726\INCLUDE\VECTOR
^D:\SABOTEUR2\SABOTEUR\SABOTEUR\UNUSEDCARDS.CPP
D:\SABOTEUR2\SABOTEUR\SABOTEUR\UNUSEDCARDS.H
D:\SABOTEUR2\SABOTEUR\SABOTEUR\ACTIONCARD.H
D:\VISUAL STUDIO\VC\TOOLS\MSVC\14.15.26726\INCLUDE\IOSTREAM
D:\VISUAL STUDIO\VC\TOOLS\MSVC\14.15.26726\INCLUDE\ISTREAM
D:\VISUAL STUDIO\VC\TOOLS\MSVC\14.15.26726\INCLUDE\OSTREAM
D:\VISUAL STUDIO\VC\TOOLS\MSVC\14.15.26726\INCLUDE\IOS
D:\VISUAL STUDIO\VC\TOOLS\MSVC\14.15.26726\INCLUDE\XLOCNUM
D:\VISUAL STUDIO\VC\TOOLS\MSVC\14.15.26726\INCLUDE\CLIMITS
D:\VISUAL STUDIO\VC\TOOLS\MSVC\14.15.26726\INCLUDE\YVALS.H
D:\VISUAL STUDIO\VC\TOOLS\MSVC\14.15.26726\INCLUDE\YVALS_CORE.H
D:\VISUAL STUDIO\VC\TOOLS\MSVC\14.15.26726\INCLUDE\XKEYCHECK.H
D:\VISUAL STUDIO\VC\TOOLS\MSVC\14.15.26726\INCLUDE\CRTDEFS.H
D:\VISUAL STUDIO\VC\TOOLS\MSVC\14.15.26726\INCLUDE\VCRUNTIME.H
D:\VISUAL STUDIO\VC\TOOLS\MSVC\14.15.26726\INCLUDE\SAL.H
D:\VISUAL STUDIO\VC\TOOLS\MSVC\14.15.26726\INCLUDE\CONCURRENCYSAL.H
D:\VISUAL STUDIO\VC\TOOLS\MSVC\14.15.26726\INCLUDE\VADEFS.H
D:\WINDOWS KITS\10\INCLUDE\10.0.17134.0\UCRT\CORECRT.H
D:\WINDOWS KITS\10\INCLUDE\10.0.17134.0\UCRT\CRTDBG.H
D:\VISUAL STUDIO\VC\TOOLS\MSVC\14.15.26726\INCLUDE\VCRUNTIME_NEW_DEBUG.H
D:\VISUAL STUDIO\VC\TOOLS\MSVC\14.15.26726\INCLUDE\VCRUNTIME_NEW.H
D:\VISUAL STUDIO\VC\TOOLS\MSVC\14.15.26726\INCLUDE\USE_ANSI.H
D:\VISUAL STUDIO\VC\TOOLS\MSVC\14.15.26726\INCLUDE\LIMITS.H
D:\VISUAL STUDIO\VC\TOOLS\MSVC\14.15.26726\INCLUDE\CMATH
D:\VISUAL STUDIO\VC\TOOLS\MSVC\14.15.26726\INCLUDE\CSTDLIB
D:\WINDOWS KITS\10\INCLUDE\10.0.17134.0\UCRT\STDLIB.H
D:\WINDOWS KITS\10\INCLUDE\10.0.17134.0\UCRT\CORECRT_MALLOC.H
D:\WINDOWS KITS\10\INCLUDE\10.0.17134.0\UCRT\CORECRT_SEARCH.H
D:\WINDOWS KITS\10\INCLUDE\10.0.17134.0\UCRT\STDDEF.H
D:\WINDOWS KITS\10\INCLUDE\10.0.17134.0\UCRT\CORECRT_WSTDLIB.H
D:\WINDOWS KITS\10\INCLUDE\10.0.17134.0\UCRT\MATH.H
D:\WINDOWS KITS\10\INCLUDE\10.0.17134.0\UCRT\CORECRT_MATH.H
D:\VISUAL STUDIO\VC\TOOLS\MSVC\14.15.26726\INCLUDE\XTGMATH.H
D:\VISUAL STUDIO\VC\TOOLS\MSVC\14.15.26726\INCLUDE\XTR1COMMON
D:\VISUAL STUDIO\VC\TOOLS\MSVC\14.15.26726\INCLUDE\CSTDIO
D:\WINDOWS KITS\10\INCLUDE\10.0.17134.0\UCRT\STDIO.H
D:\WINDOWS KITS\10\INCLUDE\10.0.17134.0\UCRT\CORECRT_WSTDIO.H
D:\WINDOWS KITS\10\INCLUDE\10.0.17134.0\UCRT\CORECRT_STDIO_CONFIG.H
D:\VISUAL STUDIO\VC\TOOLS\MSVC\14.15.26726\INCLUDE\STREAMBUF
D:\VISUAL STUDIO\VC\TOOLS\MSVC\14.15.26726\INCLUDE\XIOSBASE
D:\VISUAL STUDIO\VC\TOOLS\MSVC\14.15.26726\INCLUDE\XLOCALE
D:\VISUAL STUDIO\VC\TOOLS\MSVC\14.15.26726\INCLUDE\CSTRING
D:\WINDOWS KITS\10\INCLUDE\10.0.17134.0\UCRT\STRING.H
D:\WINDOWS KITS\10\INCLUDE\10.0.17134.0\UCRT\CORECRT_MEMORY.H
D:\WINDOWS KITS\10\INCLUDE\10.0.17134.0\UCRT\CORECRT_MEMCPY_S.H
D:\WINDOWS KITS\10\INCLUDE\10.0.17134.0\UCRT\ERRNO.H
D:\VISUAL STUDIO\VC\TOOLS\MSVC\14.15.26726\INCLUDE\VCRUNTIME_STRING.H
D:\WINDOWS KITS\10\INCLUDE\10.0.17134.0\UCRT\CORECRT_WSTRING.H
D:\VISUAL STUDIO\VC\TOOLS\MSVC\14.15.26726\INCLUDE\STDEXCEPT
D:\VISUAL STUDIO\VC\TOOLS\MSVC\14.15.26726\INCLUDE\EXCEPTION
D:\VISUAL STUDIO\VC\TOOLS\MSVC\14.15.26726\INCLUDE\TYPE_TRAITS
D:\VISUAL STUDIO\VC\TOOLS\MSVC\14.15.26726\INCLUDE\XSTDDEF
D:\VISUAL STUDIO\VC\TOOLS\MSVC\14.15.26726\INCLUDE\CSTDDEF
D:\VISUAL STUDIO\VC\TOOLS\MSVC\14.15.26726\INCLUDE\INITIALIZER_LIST
D:\WINDOWS KITS\10\INCLUDE\10.0.17134.0\UCRT\MALLOC.H
D:\VISUAL STUDIO\VC\TOOLS\MSVC\14.15.26726\INCLUDE\VCRUNTIME_EXCEPTION.H
D:\VISUAL STUDIO\VC\TOOLS\MSVC\14.15.26726\INCLUDE\EH.H
D:\WINDOWS KITS\10\INCLUDE\10.0.17134.0\UCRT\CORECRT_TERMINATE.H
D:\VISUAL STUDIO\VC\TOOLS\MSVC\14.15.26726\INCLUDE\XSTRING
D:\VISUAL STUDIO\VC\TOOLS\MSVC\14.15.26726\INCLUDE\XMEMORY0
D:\VISUAL STUDIO\VC\TOOLS\MSVC\14.15.26726\INCLUDE\CSTDINT
D:\VISUAL STUDIO\VC\TOOLS\MSVC\14.15.26726\INCLUDE\STDINT.H
D:\VISUAL STUDIO\VC\TOOLS\MSVC\14.15.26726\INCLUDE\LIMITS
D:\VISUAL STUDIO\VC\TOOLS\MSVC\14.15.26726\INCLUDE\YMATH.H
D:\VISUAL STUDIO\VC\TOOLS\MSVC\14.15.26726\INCLUDE\CFLOAT
D:\WINDOWS KITS\10\INCLUDE\10.0.17134.0\UCRT\FLOAT.H
D:\VISUAL STUDIO\VC\TOOLS\MSVC\14.15.26726\INCLUDE\CWCHAR
D:\WINDOWS KITS\10\INCLUDE\10.0.17134.0\UCRT\WCHAR.H
D:\WINDOWS KITS\10\INCLUDE\10.0.17134.0\UCRT\CORECRT_WCONIO.H
D:\WINDOWS KITS\10\INCLUDE\10.0.17134.0\UCRT\CORECRT_WCTYPE.H
D:\WINDOWS KITS\10\INCLUDE\10.0.17134.0\UCRT\CORECRT_WDIRECT.H
D:\WINDOWS KITS\10\INCLUDE\10.0.17134.0\UCRT\CORECRT_WIO.H
D:\WINDOWS KITS\10\INCLUDE\10.0.17134.0\UCRT\CORECRT_SHARE.H
D:\WINDOWS KITS\10\INCLUDE\10.0.17134.0\UCRT\CORECRT_WPROCESS.H
D:\WINDOWS KITS\10\INCLUDE\10.0.17134.0\UCRT\CORECRT_WTIME.H
D:\WINDOWS KITS\10\INCLUDE\10.0.17134.0\UCRT\SYS\STAT.H
D:\WINDOWS KITS\10\INCLUDE\10.0.17134.0\UCRT\SYS\TYPES.H
D:\VISUAL STUDIO\VC\TOOLS\MSVC\14.15.26726\INCLUDE\NEW
D:\VISUAL STUDIO\VC\TOOLS\MSVC\14.15.26726\INCLUDE\XUTILITY
D:\VISUAL STUDIO\VC\TOOLS\MSVC\14.15.26726\INCLUDE\UTILITY
D:\VISUAL STUDIO\VC\TOOLS\MSVC\14.15.26726\INCLUDE\IOSFWD
D:\VISUAL STUDIO\VC\TOOLS\MSVC\14.15.26726\INCLUDE\XATOMIC0.H
D:\VISUAL STUDIO\VC\TOOLS\MSVC\14.15.26726\INCLUDE\INTRIN0.H
D:\VISUAL STUDIO\VC\TOOLS\MSVC\14.15.26726\INCLUDE\TYPEINFO
D:\VISUAL STUDIO\VC\TOOLS\MSVC\14.15.26726\INCLUDE\VCRUNTIME_TYPEINFO.H
D:\VISUAL STUDIO\VC\TOOLS\MSVC\14.15.26726\INCLUDE\XLOCINFO
D:\VISUAL STUDIO\VC\TOOLS\MSVC\14.15.26726\INCLUDE\XLOCINFO.H
D:\WINDOWS KITS\10\INCLUDE\10.0.17134.0\UCRT\CTYPE.H
D:\WINDOWS KITS\10\INCLUDE\10.0.17134.0\UCRT\LOCALE.H
D:\VISUAL STUDIO\VC\TOOLS\MSVC\14.15.26726\INCLUDE\MEMORY
D:\VISUAL STUDIO\VC\TOOLS\MSVC\14.15.26726\INCLUDE\XMEMORY
D:\VISUAL STUDIO\VC\TOOLS\MSVC\14.15.26726\INCLUDE\XFACET
D:\VISUAL STUDIO\VC\TOOLS\MSVC\14.15.26726\INCLUDE\SYSTEM_ERROR
D:\VISUAL STUDIO\VC\TOOLS\MSVC\14.15.26726\INCLUDE\CERRNO
D:\VISUAL STUDIO\VC\TOOLS\MSVC\14.15.26726\INCLUDE\XCALL_ONCE.H
D:\VISUAL STUDIO\VC\TOOLS\MSVC\14.15.26726\INCLUDE\XERRC.H
D:\WINDOWS KITS\10\INCLUDE\10.0.17134.0\UCRT\SHARE.H
D:\SABOTEUR2\SABOTEUR\SABOTEUR\PATHCARD.H
D:\VISUAL STUDIO\VC\TOOLS\MSVC\14.15.26726\INCLUDE\VARIANT
D:\VISUAL STUDIO\VC\TOOLS\MSVC\14.15.26726\INCLUDE\XSMF_CONTROL.H
D:\VISUAL STUDIO\VC\TOOLS\MSVC\14.15.26726\INCLUDE\VECTOR
D:\VISUAL STUDIO\VC\TOOLS\MSVC\14.15.26726\INCLUDE\XPOLYMORPHIC_ALLOCATOR.H
D:\VISUAL STUDIO\VC\TOOLS\MSVC\14.15.26726\INCLUDE\TUPLE
D:\VISUAL STUDIO\VC\TOOLS\MSVC\14.15.26726\INCLUDE\ALGORITHM
D:\VISUAL STUDIO\VC\TOOLS\MSVC\14.15.26726\INCLUDE\RANDOM
D:\VISUAL STUDIO\VC\TOOLS\MSVC\14.15.26726\INCLUDE\CHRONO
D:\VISUAL STUDIO\VC\TOOLS\MSVC\14.15.26726\INCLUDE\RATIO
D:\WINDOWS KITS\10\INCLUDE\10.0.17134.0\UCRT\TIME.H
D:\VISUAL STUDIO\VC\TOOLS\MSVC\14.15.26726\INCLUDE\THR\XTIMEC.H
D:\VISUAL STUDIO\VC\TOOLS\MSVC\14.15.26726\INCLUDE\THR\XTHRCOMMON.H
^D:\SABOTEUR2\SABOTEUR\SABOTEUR\MAIN.CPP
D:\VISUAL STUDIO\VC\TOOLS\MSVC\14.15.26726\BIN\HOSTX86\X86\1033\CLUI.DLL
C:\WINDOWS\GLOBALIZATION\SORTING\SORTDEFAULT.NLS
C:\WINDOWS\SYSTEM32\TZRES.DLL
D:\SABOTEUR2\SABOTEUR\SABOTEUR\GAME.H
D:\SABOTEUR2\SABOTEUR\SABOTEUR\PLAYER.H
D:\SABOTEUR2\SABOTEUR\SABOTEUR\BOARD.H
D:\SABOTEUR2\SABOTEUR\SABOTEUR\PATHCARD.H
D:\VISUAL STUDIO\VC\TOOLS\MSVC\14.15.26726\INCLUDE\IOSTREAM
D:\VISUAL STUDIO\VC\TOOLS\MSVC\14.15.26726\INCLUDE\ISTREAM
D:\VISUAL STUDIO\VC\TOOLS\MSVC\14.15.26726\INCLUDE\OSTREAM
D:\VISUAL STUDIO\VC\TOOLS\MSVC\14.15.26726\INCLUDE\IOS
D:\VISUAL STUDIO\VC\TOOLS\MSVC\14.15.26726\INCLUDE\XLOCNUM
D:\VISUAL STUDIO\VC\TOOLS\MSVC\14.15.26726\INCLUDE\CLIMITS
D:\VISUAL STUDIO\VC\TOOLS\MSVC\14.15.26726\INCLUDE\YVALS.H
D:\VISUAL STUDIO\VC\TOOLS\MSVC\14.15.26726\INCLUDE\YVALS_CORE.H
D:\VISUAL STUDIO\VC\TOOLS\MSVC\14.15.26726\INCLUDE\XKEYCHECK.H
D:\VISUAL STUDIO\VC\TOOLS\MSVC\14.15.26726\INCLUDE\CRTDEFS.H
D:\VISUAL STUDIO\VC\TOOLS\MSVC\14.15.26726\INCLUDE\VCRUNTIME.H
D:\VISUAL STUDIO\VC\TOOLS\MSVC\14.15.26726\INCLUDE\SAL.H
D:\VISUAL STUDIO\VC\TOOLS\MSVC\14.15.26726\INCLUDE\CONCURRENCYSAL.H
D:\VISUAL STUDIO\VC\TOOLS\MSVC\14.15.26726\INCLUDE\VADEFS.H
D:\WINDOWS KITS\10\INCLUDE\10.0.17134.0\UCRT\CORECRT.H
D:\WINDOWS KITS\10\INCLUDE\10.0.17134.0\UCRT\CRTDBG.H
D:\VISUAL STUDIO\VC\TOOLS\MSVC\14.15.26726\INCLUDE\VCRUNTIME_NEW_DEBUG.H
D:\VISUAL STUDIO\VC\TOOLS\MSVC\14.15.26726\INCLUDE\VCRUNTIME_NEW.H
D:\VISUAL STUDIO\VC\TOOLS\MSVC\14.15.26726\INCLUDE\USE_ANSI.H
D:\VISUAL STUDIO\VC\TOOLS\MSVC\14.15.26726\INCLUDE\LIMITS.H
D:\VISUAL STUDIO\VC\TOOLS\MSVC\14.15.26726\INCLUDE\CMATH
D:\VISUAL STUDIO\VC\TOOLS\MSVC\14.15.26726\INCLUDE\CSTDLIB
D:\WINDOWS KITS\10\INCLUDE\10.0.17134.0\UCRT\STDLIB.H
D:\WINDOWS KITS\10\INCLUDE\10.0.17134.0\UCRT\CORECRT_MALLOC.H
D:\WINDOWS KITS\10\INCLUDE\10.0.17134.0\UCRT\CORECRT_SEARCH.H
D:\WINDOWS KITS\10\INCLUDE\10.0.17134.0\UCRT\STDDEF.H
D:\WINDOWS KITS\10\INCLUDE\10.0.17134.0\UCRT\CORECRT_WSTDLIB.H
D:\WINDOWS KITS\10\INCLUDE\10.0.17134.0\UCRT\MATH.H
D:\WINDOWS KITS\10\INCLUDE\10.0.17134.0\UCRT\CORECRT_MATH.H
D:\VISUAL STUDIO\VC\TOOLS\MSVC\14.15.26726\INCLUDE\XTGMATH.H
D:\VISUAL STUDIO\VC\TOOLS\MSVC\14.15.26726\INCLUDE\XTR1COMMON
D:\VISUAL STUDIO\VC\TOOLS\MSVC\14.15.26726\INCLUDE\CSTDIO
D:\WINDOWS KITS\10\INCLUDE\10.0.17134.0\UCRT\STDIO.H
D:\WINDOWS KITS\10\INCLUDE\10.0.17134.0\UCRT\CORECRT_WSTDIO.H
D:\WINDOWS KITS\10\INCLUDE\10.0.17134.0\UCRT\CORECRT_STDIO_CONFIG.H
D:\VISUAL STUDIO\VC\TOOLS\MSVC\14.15.26726\INCLUDE\STREAMBUF
D:\VISUAL STUDIO\VC\TOOLS\MSVC\14.15.26726\INCLUDE\XIOSBASE
D:\VISUAL STUDIO\VC\TOOLS\MSVC\14.15.26726\INCLUDE\XLOCALE
D:\VISUAL STUDIO\VC\TOOLS\MSVC\14.15.26726\INCLUDE\CSTRING
D:\WINDOWS KITS\10\INCLUDE\10.0.17134.0\UCRT\STRING.H
D:\WINDOWS KITS\10\INCLUDE\10.0.17134.0\UCRT\CORECRT_MEMORY.H
D:\WINDOWS KITS\10\INCLUDE\10.0.17134.0\UCRT\CORECRT_MEMCPY_S.H
D:\WINDOWS KITS\10\INCLUDE\10.0.17134.0\UCRT\ERRNO.H
D:\VISUAL STUDIO\VC\TOOLS\MSVC\14.15.26726\INCLUDE\VCRUNTIME_STRING.H
D:\WINDOWS KITS\10\INCLUDE\10.0.17134.0\UCRT\CORECRT_WSTRING.H
D:\VISUAL STUDIO\VC\TOOLS\MSVC\14.15.26726\INCLUDE\STDEXCEPT
D:\VISUAL STUDIO\VC\TOOLS\MSVC\14.15.26726\INCLUDE\EXCEPTION
D:\VISUAL STUDIO\VC\TOOLS\MSVC\14.15.26726\INCLUDE\TYPE_TRAITS
D:\VISUAL STUDIO\VC\TOOLS\MSVC\14.15.26726\INCLUDE\XSTDDEF
D:\VISUAL STUDIO\VC\TOOLS\MSVC\14.15.26726\INCLUDE\CSTDDEF
D:\VISUAL STUDIO\VC\TOOLS\MSVC\14.15.26726\INCLUDE\INITIALIZER_LIST
D:\WINDOWS KITS\10\INCLUDE\10.0.17134.0\UCRT\MALLOC.H
D:\VISUAL STUDIO\VC\TOOLS\MSVC\14.15.26726\INCLUDE\VCRUNTIME_EXCEPTION.H
D:\VISUAL STUDIO\VC\TOOLS\MSVC\14.15.26726\INCLUDE\EH.H
D:\WINDOWS KITS\10\INCLUDE\10.0.17134.0\UCRT\CORECRT_TERMINATE.H
D:\VISUAL STUDIO\VC\TOOLS\MSVC\14.15.26726\INCLUDE\XSTRING
D:\VISUAL STUDIO\VC\TOOLS\MSVC\14.15.26726\INCLUDE\XMEMORY0
D:\VISUAL STUDIO\VC\TOOLS\MSVC\14.15.26726\INCLUDE\CSTDINT
D:\VISUAL STUDIO\VC\TOOLS\MSVC\14.15.26726\INCLUDE\STDINT.H
D:\VISUAL STUDIO\VC\TOOLS\MSVC\14.15.26726\INCLUDE\LIMITS
D:\VISUAL STUDIO\VC\TOOLS\MSVC\14.15.26726\INCLUDE\YMATH.H
D:\VISUAL STUDIO\VC\TOOLS\MSVC\14.15.26726\INCLUDE\CFLOAT
D:\WINDOWS KITS\10\INCLUDE\10.0.17134.0\UCRT\FLOAT.H
D:\VISUAL STUDIO\VC\TOOLS\MSVC\14.15.26726\INCLUDE\CWCHAR
D:\WINDOWS KITS\10\INCLUDE\10.0.17134.0\UCRT\WCHAR.H
D:\WINDOWS KITS\10\INCLUDE\10.0.17134.0\UCRT\CORECRT_WCONIO.H
D:\WINDOWS KITS\10\INCLUDE\10.0.17134.0\UCRT\CORECRT_WCTYPE.H
D:\WINDOWS KITS\10\INCLUDE\10.0.17134.0\UCRT\CORECRT_WDIRECT.H
D:\WINDOWS KITS\10\INCLUDE\10.0.17134.0\UCRT\CORECRT_WIO.H
D:\WINDOWS KITS\10\INCLUDE\10.0.17134.0\UCRT\CORECRT_SHARE.H
D:\WINDOWS KITS\10\INCLUDE\10.0.17134.0\UCRT\CORECRT_WPROCESS.H
D:\WINDOWS KITS\10\INCLUDE\10.0.17134.0\UCRT\CORECRT_WTIME.H
D:\WINDOWS KITS\10\INCLUDE\10.0.17134.0\UCRT\SYS\STAT.H
D:\WINDOWS KITS\10\INCLUDE\10.0.17134.0\UCRT\SYS\TYPES.H
D:\VISUAL STUDIO\VC\TOOLS\MSVC\14.15.26726\INCLUDE\NEW
D:\VISUAL STUDIO\VC\TOOLS\MSVC\14.15.26726\INCLUDE\XUTILITY
D:\VISUAL STUDIO\VC\TOOLS\MSVC\14.15.26726\INCLUDE\UTILITY
D:\VISUAL STUDIO\VC\TOOLS\MSVC\14.15.26726\INCLUDE\IOSFWD
D:\VISUAL STUDIO\VC\TOOLS\MSVC\14.15.26726\INCLUDE\XATOMIC0.H
D:\VISUAL STUDIO\VC\TOOLS\MSVC\14.15.26726\INCLUDE\INTRIN0.H
D:\VISUAL STUDIO\VC\TOOLS\MSVC\14.15.26726\INCLUDE\TYPEINFO
D:\VISUAL STUDIO\VC\TOOLS\MSVC\14.15.26726\INCLUDE\VCRUNTIME_TYPEINFO.H
D:\VISUAL STUDIO\VC\TOOLS\MSVC\14.15.26726\INCLUDE\XLOCINFO
D:\VISUAL STUDIO\VC\TOOLS\MSVC\14.15.26726\INCLUDE\XLOCINFO.H
D:\WINDOWS KITS\10\INCLUDE\10.0.17134.0\UCRT\CTYPE.H
D:\WINDOWS KITS\10\INCLUDE\10.0.17134.0\UCRT\LOCALE.H
D:\VISUAL STUDIO\VC\TOOLS\MSVC\14.15.26726\INCLUDE\MEMORY
D:\VISUAL STUDIO\VC\TOOLS\MSVC\14.15.26726\INCLUDE\XMEMORY
D:\VISUAL STUDIO\VC\TOOLS\MSVC\14.15.26726\INCLUDE\XFACET
D:\VISUAL STUDIO\VC\TOOLS\MSVC\14.15.26726\INCLUDE\SYSTEM_ERROR
D:\VISUAL STUDIO\VC\TOOLS\MSVC\14.15.26726\INCLUDE\CERRNO
D:\VISUAL STUDIO\VC\TOOLS\MSVC\14.15.26726\INCLUDE\XCALL_ONCE.H
D:\VISUAL STUDIO\VC\TOOLS\MSVC\14.15.26726\INCLUDE\XERRC.H
D:\WINDOWS KITS\10\INCLUDE\10.0.17134.0\UCRT\SHARE.H
D:\SABOTEUR2\SABOTEUR\SABOTEUR\BEGINCARD.H
D:\VISUAL STUDIO\VC\TOOLS\MSVC\14.15.26726\INCLUDE\ARRAY
D:\VISUAL STUDIO\VC\TOOLS\MSVC\14.15.26726\INCLUDE\ALGORITHM
D:\VISUAL STUDIO\VC\TOOLS\MSVC\14.15.26726\INCLUDE\ITERATOR
D:\VISUAL STUDIO\VC\TOOLS\MSVC\14.15.26726\INCLUDE\TUPLE
D:\VISUAL STUDIO\VC\TOOLS\MSVC\14.15.26726\INCLUDE\OPTIONAL
D:\VISUAL STUDIO\VC\TOOLS\MSVC\14.15.26726\INCLUDE\XSMF_CONTROL.H
D:\VISUAL STUDIO\VC\TOOLS\MSVC\14.15.26726\INCLUDE\VARIANT
D:\SABOTEUR2\SABOTEUR\SABOTEUR\ACTIONCARD.H
D:\SABOTEUR2\SABOTEUR\SABOTEUR\DWARFCARD.H
D:\VISUAL STUDIO\VC\TOOLS\MSVC\14.15.26726\INCLUDE\STRING
D:\VISUAL STUDIO\VC\TOOLS\MSVC\14.15.26726\INCLUDE\XSTRING_INSERT.H
D:\VISUAL STUDIO\VC\TOOLS\MSVC\14.15.26726\INCLUDE\XPOLYMORPHIC_ALLOCATOR.H
D:\VISUAL STUDIO\VC\TOOLS\MSVC\14.15.26726\INCLUDE\VECTOR
D:\SABOTEUR2\SABOTEUR\SABOTEUR\GOLDCARD.H
D:\SABOTEUR2\SABOTEUR\SABOTEUR\UNUSEDCARDS.H
D:\SABOTEUR2\SABOTEUR\SABOTEUR\BOARDSTATECHECKER.H
D:\VISUAL STUDIO\VC\TOOLS\MSVC\14.15.26726\INCLUDE\RANDOM
D:\VISUAL STUDIO\VC\TOOLS\MSVC\14.15.26726\INCLUDE\CHRONO
D:\VISUAL STUDIO\VC\TOOLS\MSVC\14.15.26726\INCLUDE\RATIO
D:\WINDOWS KITS\10\INCLUDE\10.0.17134.0\UCRT\TIME.H
D:\VISUAL STUDIO\VC\TOOLS\MSVC\14.15.26726\INCLUDE\THR\XTIMEC.H
D:\VISUAL STUDIO\VC\TOOLS\MSVC\14.15.26726\INCLUDE\THR\XTHRCOMMON.H
D:\SABOTEUR2\SABOTEUR\LOGGING\LOGGING.H
D:\VISUAL STUDIO\VC\TOOLS\MSVC\14.15.26726\INCLUDE\FSTREAM
^D:\SABOTEUR2\SABOTEUR\SABOTEUR\GAME.CPP
D:\VISUAL STUDIO\VC\TOOLS\MSVC\14.15.26726\BIN\HOSTX86\X86\1033\CLUI.DLL
C:\WINDOWS\GLOBALIZATION\SORTING\SORTDEFAULT.NLS
C:\WINDOWS\SYSTEM32\TZRES.DLL
D:\SABOTEUR2\SABOTEUR\SABOTEUR\GAME.H
D:\SABOTEUR2\SABOTEUR\SABOTEUR\PLAYER.H
D:\SABOTEUR2\SABOTEUR\SABOTEUR\BOARD.H
D:\SABOTEUR2\SABOTEUR\SABOTEUR\PATHCARD.H
D:\VISUAL STUDIO\VC\TOOLS\MSVC\14.15.26726\INCLUDE\IOSTREAM
D:\VISUAL STUDIO\VC\TOOLS\MSVC\14.15.26726\INCLUDE\ISTREAM
D:\VISUAL STUDIO\VC\TOOLS\MSVC\14.15.26726\INCLUDE\OSTREAM
D:\VISUAL STUDIO\VC\TOOLS\MSVC\14.15.26726\INCLUDE\IOS
D:\VISUAL STUDIO\VC\TOOLS\MSVC\14.15.26726\INCLUDE\XLOCNUM
D:\VISUAL STUDIO\VC\TOOLS\MSVC\14.15.26726\INCLUDE\CLIMITS
D:\VISUAL STUDIO\VC\TOOLS\MSVC\14.15.26726\INCLUDE\YVALS.H
D:\VISUAL STUDIO\VC\TOOLS\MSVC\14.15.26726\INCLUDE\YVALS_CORE.H
D:\VISUAL STUDIO\VC\TOOLS\MSVC\14.15.26726\INCLUDE\XKEYCHECK.H
D:\VISUAL STUDIO\VC\TOOLS\MSVC\14.15.26726\INCLUDE\CRTDEFS.H
D:\VISUAL STUDIO\VC\TOOLS\MSVC\14.15.26726\INCLUDE\VCRUNTIME.H
D:\VISUAL STUDIO\VC\TOOLS\MSVC\14.15.26726\INCLUDE\SAL.H
D:\VISUAL STUDIO\VC\TOOLS\MSVC\14.15.26726\INCLUDE\CONCURRENCYSAL.H
D:\VISUAL STUDIO\VC\TOOLS\MSVC\14.15.26726\INCLUDE\VADEFS.H
D:\WINDOWS KITS\10\INCLUDE\10.0.17134.0\UCRT\CORECRT.H
D:\WINDOWS KITS\10\INCLUDE\10.0.17134.0\UCRT\CRTDBG.H
D:\VISUAL STUDIO\VC\TOOLS\MSVC\14.15.26726\INCLUDE\VCRUNTIME_NEW_DEBUG.H
D:\VISUAL STUDIO\VC\TOOLS\MSVC\14.15.26726\INCLUDE\VCRUNTIME_NEW.H
D:\VISUAL STUDIO\VC\TOOLS\MSVC\14.15.26726\INCLUDE\USE_ANSI.H
D:\VISUAL STUDIO\VC\TOOLS\MSVC\14.15.26726\INCLUDE\LIMITS.H
D:\VISUAL STUDIO\VC\TOOLS\MSVC\14.15.26726\INCLUDE\CMATH
D:\VISUAL STUDIO\VC\TOOLS\MSVC\14.15.26726\INCLUDE\CSTDLIB
D:\WINDOWS KITS\10\INCLUDE\10.0.17134.0\UCRT\STDLIB.H
D:\WINDOWS KITS\10\INCLUDE\10.0.17134.0\UCRT\CORECRT_MALLOC.H
D:\WINDOWS KITS\10\INCLUDE\10.0.17134.0\UCRT\CORECRT_SEARCH.H
D:\WINDOWS KITS\10\INCLUDE\10.0.17134.0\UCRT\STDDEF.H
D:\WINDOWS KITS\10\INCLUDE\10.0.17134.0\UCRT\CORECRT_WSTDLIB.H
D:\WINDOWS KITS\10\INCLUDE\10.0.17134.0\UCRT\MATH.H
D:\WINDOWS KITS\10\INCLUDE\10.0.17134.0\UCRT\CORECRT_MATH.H
D:\VISUAL STUDIO\VC\TOOLS\MSVC\14.15.26726\INCLUDE\XTGMATH.H
D:\VISUAL STUDIO\VC\TOOLS\MSVC\14.15.26726\INCLUDE\XTR1COMMON
D:\VISUAL STUDIO\VC\TOOLS\MSVC\14.15.26726\INCLUDE\CSTDIO
D:\WINDOWS KITS\10\INCLUDE\10.0.17134.0\UCRT\STDIO.H
D:\WINDOWS KITS\10\INCLUDE\10.0.17134.0\UCRT\CORECRT_WSTDIO.H
D:\WINDOWS KITS\10\INCLUDE\10.0.17134.0\UCRT\CORECRT_STDIO_CONFIG.H
D:\VISUAL STUDIO\VC\TOOLS\MSVC\14.15.26726\INCLUDE\STREAMBUF
D:\VISUAL STUDIO\VC\TOOLS\MSVC\14.15.26726\INCLUDE\XIOSBASE
D:\VISUAL STUDIO\VC\TOOLS\MSVC\14.15.26726\INCLUDE\XLOCALE
D:\VISUAL STUDIO\VC\TOOLS\MSVC\14.15.26726\INCLUDE\CSTRING
D:\WINDOWS KITS\10\INCLUDE\10.0.17134.0\UCRT\STRING.H
D:\WINDOWS KITS\10\INCLUDE\10.0.17134.0\UCRT\CORECRT_MEMORY.H
D:\WINDOWS KITS\10\INCLUDE\10.0.17134.0\UCRT\CORECRT_MEMCPY_S.H
D:\WINDOWS KITS\10\INCLUDE\10.0.17134.0\UCRT\ERRNO.H
D:\VISUAL STUDIO\VC\TOOLS\MSVC\14.15.26726\INCLUDE\VCRUNTIME_STRING.H
D:\WINDOWS KITS\10\INCLUDE\10.0.17134.0\UCRT\CORECRT_WSTRING.H
D:\VISUAL STUDIO\VC\TOOLS\MSVC\14.15.26726\INCLUDE\STDEXCEPT
D:\VISUAL STUDIO\VC\TOOLS\MSVC\14.15.26726\INCLUDE\EXCEPTION
D:\VISUAL STUDIO\VC\TOOLS\MSVC\14.15.26726\INCLUDE\TYPE_TRAITS
D:\VISUAL STUDIO\VC\TOOLS\MSVC\14.15.26726\INCLUDE\XSTDDEF
D:\VISUAL STUDIO\VC\TOOLS\MSVC\14.15.26726\INCLUDE\CSTDDEF
D:\VISUAL STUDIO\VC\TOOLS\MSVC\14.15.26726\INCLUDE\INITIALIZER_LIST
D:\WINDOWS KITS\10\INCLUDE\10.0.17134.0\UCRT\MALLOC.H
D:\VISUAL STUDIO\VC\TOOLS\MSVC\14.15.26726\INCLUDE\VCRUNTIME_EXCEPTION.H
D:\VISUAL STUDIO\VC\TOOLS\MSVC\14.15.26726\INCLUDE\EH.H
D:\WINDOWS KITS\10\INCLUDE\10.0.17134.0\UCRT\CORECRT_TERMINATE.H
D:\VISUAL STUDIO\VC\TOOLS\MSVC\14.15.26726\INCLUDE\XSTRING
D:\VISUAL STUDIO\VC\TOOLS\MSVC\14.15.26726\INCLUDE\XMEMORY0
D:\VISUAL STUDIO\VC\TOOLS\MSVC\14.15.26726\INCLUDE\CSTDINT
D:\VISUAL STUDIO\VC\TOOLS\MSVC\14.15.26726\INCLUDE\STDINT.H
D:\VISUAL STUDIO\VC\TOOLS\MSVC\14.15.26726\INCLUDE\LIMITS
D:\VISUAL STUDIO\VC\TOOLS\MSVC\14.15.26726\INCLUDE\YMATH.H
D:\VISUAL STUDIO\VC\TOOLS\MSVC\14.15.26726\INCLUDE\CFLOAT
D:\WINDOWS KITS\10\INCLUDE\10.0.17134.0\UCRT\FLOAT.H
D:\VISUAL STUDIO\VC\TOOLS\MSVC\14.15.26726\INCLUDE\CWCHAR
D:\WINDOWS KITS\10\INCLUDE\10.0.17134.0\UCRT\WCHAR.H
D:\WINDOWS KITS\10\INCLUDE\10.0.17134.0\UCRT\CORECRT_WCONIO.H
D:\WINDOWS KITS\10\INCLUDE\10.0.17134.0\UCRT\CORECRT_WCTYPE.H
D:\WINDOWS KITS\10\INCLUDE\10.0.17134.0\UCRT\CORECRT_WDIRECT.H
D:\WINDOWS KITS\10\INCLUDE\10.0.17134.0\UCRT\CORECRT_WIO.H
D:\WINDOWS KITS\10\INCLUDE\10.0.17134.0\UCRT\CORECRT_SHARE.H
D:\WINDOWS KITS\10\INCLUDE\10.0.17134.0\UCRT\CORECRT_WPROCESS.H
D:\WINDOWS KITS\10\INCLUDE\10.0.17134.0\UCRT\CORECRT_WTIME.H
D:\WINDOWS KITS\10\INCLUDE\10.0.17134.0\UCRT\SYS\STAT.H
D:\WINDOWS KITS\10\INCLUDE\10.0.17134.0\UCRT\SYS\TYPES.H
D:\VISUAL STUDIO\VC\TOOLS\MSVC\14.15.26726\INCLUDE\NEW
D:\VISUAL STUDIO\VC\TOOLS\MSVC\14.15.26726\INCLUDE\XUTILITY
D:\VISUAL STUDIO\VC\TOOLS\MSVC\14.15.26726\INCLUDE\UTILITY
D:\VISUAL STUDIO\VC\TOOLS\MSVC\14.15.26726\INCLUDE\IOSFWD
D:\VISUAL STUDIO\VC\TOOLS\MSVC\14.15.26726\INCLUDE\XATOMIC0.H
D:\VISUAL STUDIO\VC\TOOLS\MSVC\14.15.26726\INCLUDE\INTRIN0.H
D:\VISUAL STUDIO\VC\TOOLS\MSVC\14.15.26726\INCLUDE\TYPEINFO
D:\VISUAL STUDIO\VC\TOOLS\MSVC\14.15.26726\INCLUDE\VCRUNTIME_TYPEINFO.H
D:\VISUAL STUDIO\VC\TOOLS\MSVC\14.15.26726\INCLUDE\XLOCINFO
D:\VISUAL STUDIO\VC\TOOLS\MSVC\14.15.26726\INCLUDE\XLOCINFO.H
D:\WINDOWS KITS\10\INCLUDE\10.0.17134.0\UCRT\CTYPE.H
D:\WINDOWS KITS\10\INCLUDE\10.0.17134.0\UCRT\LOCALE.H
D:\VISUAL STUDIO\VC\TOOLS\MSVC\14.15.26726\INCLUDE\MEMORY
D:\VISUAL STUDIO\VC\TOOLS\MSVC\14.15.26726\INCLUDE\XMEMORY
D:\VISUAL STUDIO\VC\TOOLS\MSVC\14.15.26726\INCLUDE\XFACET
D:\VISUAL STUDIO\VC\TOOLS\MSVC\14.15.26726\INCLUDE\SYSTEM_ERROR
D:\VISUAL STUDIO\VC\TOOLS\MSVC\14.15.26726\INCLUDE\CERRNO
D:\VISUAL STUDIO\VC\TOOLS\MSVC\14.15.26726\INCLUDE\XCALL_ONCE.H
D:\VISUAL STUDIO\VC\TOOLS\MSVC\14.15.26726\INCLUDE\XERRC.H
D:\WINDOWS KITS\10\INCLUDE\10.0.17134.0\UCRT\SHARE.H
D:\SABOTEUR2\SABOTEUR\SABOTEUR\BEGINCARD.H
D:\VISUAL STUDIO\VC\TOOLS\MSVC\14.15.26726\INCLUDE\ARRAY
D:\VISUAL STUDIO\VC\TOOLS\MSVC\14.15.26726\INCLUDE\ALGORITHM
D:\VISUAL STUDIO\VC\TOOLS\MSVC\14.15.26726\INCLUDE\ITERATOR
D:\VISUAL STUDIO\VC\TOOLS\MSVC\14.15.26726\INCLUDE\TUPLE
D:\VISUAL STUDIO\VC\TOOLS\MSVC\14.15.26726\INCLUDE\OPTIONAL
D:\VISUAL STUDIO\VC\TOOLS\MSVC\14.15.26726\INCLUDE\XSMF_CONTROL.H
D:\VISUAL STUDIO\VC\TOOLS\MSVC\14.15.26726\INCLUDE\VARIANT
D:\SABOTEUR2\SABOTEUR\SABOTEUR\ACTIONCARD.H
D:\SABOTEUR2\SABOTEUR\SABOTEUR\DWARFCARD.H
D:\VISUAL STUDIO\VC\TOOLS\MSVC\14.15.26726\INCLUDE\STRING
D:\VISUAL STUDIO\VC\TOOLS\MSVC\14.15.26726\INCLUDE\XSTRING_INSERT.H
D:\VISUAL STUDIO\VC\TOOLS\MSVC\14.15.26726\INCLUDE\XPOLYMORPHIC_ALLOCATOR.H
D:\VISUAL STUDIO\VC\TOOLS\MSVC\14.15.26726\INCLUDE\VECTOR
D:\SABOTEUR2\SABOTEUR\SABOTEUR\GOLDCARD.H
D:\SABOTEUR2\SABOTEUR\SABOTEUR\UNUSEDCARDS.H
D:\SABOTEUR2\SABOTEUR\SABOTEUR\BOARDSTATECHECKER.H
D:\VISUAL STUDIO\VC\TOOLS\MSVC\14.15.26726\INCLUDE\RANDOM
D:\VISUAL STUDIO\VC\TOOLS\MSVC\14.15.26726\INCLUDE\CHRONO
D:\VISUAL STUDIO\VC\TOOLS\MSVC\14.15.26726\INCLUDE\RATIO
D:\WINDOWS KITS\10\INCLUDE\10.0.17134.0\UCRT\TIME.H
D:\VISUAL STUDIO\VC\TOOLS\MSVC\14.15.26726\INCLUDE\THR\XTIMEC.H
D:\VISUAL STUDIO\VC\TOOLS\MSVC\14.15.26726\INCLUDE\THR\XTHRCOMMON.H
D:\SABOTEUR2\SABOTEUR\SABOTEUR\DISPLAY.H
D:\SABOTEUR2\SABOTEUR\LOGGING\LOGGING.H
D:\VISUAL STUDIO\VC\TOOLS\MSVC\14.15.26726\INCLUDE\FSTREAM
