^D:\FACULTATE\AN 2\MODERNC++\SABOTEUR\SABOTEUR\SABOTEUR\DEBUG\ACTIONCARD.OBJ|D:\FACULTATE\AN 2\MODERNC++\SABOTEUR\SABOTEUR\SABOTEUR\DEBUG\MAIN.OBJ|D:\FACULTATE\AN 2\MODERNC++\SABOTEUR\SABOTEUR\SABOTEUR\DEBUG\PATHCARD.OBJ
/OUT:"D:\FACULTATE\AN 2\MODERNC++\SABOTEUR\SABOTEUR\DEBUG\SABOTEUR.EXE" /INCREMENTAL /NOLOGO KERNEL32.LIB USER32.LIB GDI32.LIB WINSPOOL.LIB COMDLG32.LIB ADVAPI32.LIB SHELL32.LIB OLE32.LIB OLEAUT32.LIB UUID.LIB ODBC32.LIB ODBCCP32.LIB /MANIFEST /MANIFESTUAC:"level='asInvoker' uiAccess='false'" /manifest:embed /DEBUG:FASTLINK /PDB:"D:\FACULTATE\AN 2\MODERNC++\SABOTEUR\SABOTEUR\DEBUG\SABOTEUR.PDB" /TLBID:1 /DYNAMICBASE /NXCOMPAT /IMPLIB:"D:\FACULTATE\AN 2\MODERNC++\SABOTEUR\SABOTEUR\DEBUG\SABOTEUR.LIB" /MACHINE:X86 DEBUG\ACTIONCARD.OBJDEBUG\MAIN.OBJDEBUG\PATHCARD.OBJ
^C:\USERS\IULIA\SABOTEUR\SABOTEUR\SABOTEUR\DEBUG\ACTIONCARD.OBJ|C:\USERS\IULIA\SABOTEUR\SABOTEUR\SABOTEUR\DEBUG\BEGINCARD.OBJ|C:\USERS\IULIA\SABOTEUR\SABOTEUR\SABOTEUR\DEBUG\BOARD.OBJ|C:\USERS\IULIA\SABOTEUR\SABOTEUR\SABOTEUR\DEBUG\BOARDSTATECHECKER.OBJ|C:\USERS\IULIA\SABOTEUR\SABOTEUR\SABOTEUR\DEBUG\DISPLAY.OBJ|C:\USERS\IULIA\SABOTEUR\SABOTEUR\SABOTEUR\DEBUG\DWARFCARD.OBJ|C:\USERS\IULIA\SABOTEUR\SABOTEUR\SABOTEUR\DEBUG\GAME.OBJ|C:\USERS\IULIA\SABOTEUR\SABOTEUR\SABOTEUR\DEBUG\GOLDCARD.OBJ|C:\USERS\IULIA\SABOTEUR\SABOTEUR\SABOTEUR\DEBUG\MAIN.OBJ|C:\USERS\IULIA\SABOTEUR\SABOTEUR\SABOTEUR\DEBUG\PATHCARD.OBJ|C:\USERS\IULIA\SABOTEUR\SABOTEUR\SABOTEUR\DEBUG\PLAYER.OBJ|C:\USERS\IULIA\SABOTEUR\SABOTEUR\SABOTEUR\DEBUG\UNUSEDCARDS.OBJ
/OUT:"C:\USERS\IULIA\SABOTEUR\SABOTEUR\DEBUG\SABOTEUR.EXE" /INCREMENTAL /NOLOGO KERNEL32.LIB USER32.LIB GDI32.LIB WINSPOOL.LIB COMDLG32.LIB ADVAPI32.LIB SHELL32.LIB OLE32.LIB OLEAUT32.LIB UUID.LIB ODBC32.LIB ODBCCP32.LIB /MANIFEST /MANIFESTUAC:"level='asInvoker' uiAccess='false'" /manifest:embed /DEBUG:FASTLINK /PDB:"C:\USERS\IULIA\SABOTEUR\SABOTEUR\DEBUG\SABOTEUR.PDB" /TLBID:1 /DYNAMICBASE /NXCOMPAT /IMPLIB:"C:\USERS\IULIA\SABOTEUR\SABOTEUR\DEBUG\SABOTEUR.LIB" /MACHINE:X86 DEBUG\ACTIONCARD.OBJDEBUG\BEGINCARD.OBJDEBUG\BOARD.OBJDEBUG\BOARDSTATECHECKER.OBJDEBUG\DISPLAY.OBJDEBUG\DWARFCARD.OBJDEBUG\GAME.OBJDEBUG\GOLDCARD.OBJDEBUG\MAIN.OBJDEBUG\PATHCARD.OBJDEBUG\PLAYER.OBJDEBUG\UNUSEDCARDS.OBJ
^D:\SABOTEUR2\SABOTEUR\DEBUG\LOGGING.LIB|D:\SABOTEUR2\SABOTEUR\SABOTEUR\DEBUG\ACTIONCARD.OBJ|D:\SABOTEUR2\SABOTEUR\SABOTEUR\DEBUG\BEGINCARD.OBJ|D:\SABOTEUR2\SABOTEUR\SABOTEUR\DEBUG\BOARD.OBJ|D:\SABOTEUR2\SABOTEUR\SABOTEUR\DEBUG\BOARDSTATECHECKER.OBJ|D:\SABOTEUR2\SABOTEUR\SABOTEUR\DEBUG\DISPLAY.OBJ|D:\SABOTEUR2\SABOTEUR\SABOTEUR\DEBUG\DWARFCARD.OBJ|D:\SABOTEUR2\SABOTEUR\SABOTEUR\DEBUG\GAME.OBJ|D:\SABOTEUR2\SABOTEUR\SABOTEUR\DEBUG\GOLDCARD.OBJ|D:\SABOTEUR2\SABOTEUR\SABOTEUR\DEBUG\MAIN.OBJ|D:\SABOTEUR2\SABOTEUR\SABOTEUR\DEBUG\PATHCARD.OBJ|D:\SABOTEUR2\SABOTEUR\SABOTEUR\DEBUG\PLAYER.OBJ|D:\SABOTEUR2\SABOTEUR\SABOTEUR\DEBUG\UNUSEDCARDS.OBJ
/OUT:"D:\SABOTEUR2\SABOTEUR\DEBUG\SABOTEUR.EXE" /INCREMENTAL /NOLOGO KERNEL32.LIB USER32.LIB GDI32.LIB WINSPOOL.LIB COMDLG32.LIB ADVAPI32.LIB SHELL32.LIB OLE32.LIB OLEAUT32.LIB UUID.LIB ODBC32.LIB ODBCCP32.LIB /MANIFEST /MANIFESTUAC:"level='asInvoker' uiAccess='false'" /manifest:embed /DEBUG:FASTLINK /PDB:"D:\SABOTEUR2\SABOTEUR\DEBUG\SABOTEUR.PDB" /TLBID:1 /DYNAMICBASE /NXCOMPAT /IMPLIB:"D:\SABOTEUR2\SABOTEUR\DEBUG\SABOTEUR.LIB" /MACHINE:X86 DEBUG\ACTIONCARD.OBJDEBUG\BEGINCARD.OBJDEBUG\BOARD.OBJDEBUG\BOARDSTATECHECKER.OBJDEBUG\DISPLAY.OBJDEBUG\DWARFCARD.OBJDEBUG\GAME.OBJDEBUG\GOLDCARD.OBJDEBUG\MAIN.OBJDEBUG\PATHCARD.OBJDEBUG\PLAYER.OBJDEBUG\UNUSEDCARDS.OBJD:\SABOTEUR2\SABOTEUR\DEBUG\LOGGING.LIB
