^C:\USERS\IULIA\SABOTEUR\SABOTEUR\SABOTEUR\ACTIONCARD.CPP|C:\USERS\IULIA\SABOTEUR\SABOTEUR\SABOTEUR\BEGINCARD.CPP|C:\USERS\IULIA\SABOTEUR\SABOTEUR\SABOTEUR\BEGINCARDS.CPP|C:\USERS\IULIA\SABOTEUR\SABOTEUR\SABOTEUR\BOARD.CPP|C:\USERS\IULIA\SABOTEUR\SABOTEUR\SABOTEUR\BOARDSTATECHECKER.CPP|C:\USERS\IULIA\SABOTEUR\SABOTEUR\SABOTEUR\DISPLAY.CPP|C:\USERS\IULIA\SABOTEUR\SABOTEUR\SABOTEUR\DWARFCARD.CPP|C:\USERS\IULIA\SABOTEUR\SABOTEUR\SABOTEUR\GAME.CPP|C:\USERS\IULIA\SABOTEUR\SABOTEUR\SABOTEUR\GOLDCARD.CPP|C:\USERS\IULIA\SABOTEUR\SABOTEUR\SABOTEUR\MAIN.CPP|C:\USERS\IULIA\SABOTEUR\SABOTEUR\SABOTEUR\PATHCARD.CPP|C:\USERS\IULIA\SABOTEUR\SABOTEUR\SABOTEUR\PLAYER.CPP|C:\USERS\IULIA\SABOTEUR\SABOTEUR\SABOTEUR\UNUSEDCARDS.CPP
C:\USERS\IULIA\SABOTEUR\SABOTEUR\BIN\WIN32\DEBUG\VC141.PDB
C:\USERS\IULIA\SABOTEUR\SABOTEUR\BIN\WIN32\DEBUG\VC141.IDB
C:\USERS\IULIA\SABOTEUR\SABOTEUR\BIN\WIN32\DEBUG\UNUSEDCARDS.OBJ
C:\USERS\IULIA\SABOTEUR\SABOTEUR\BIN\WIN32\DEBUG\PLAYER.OBJ
C:\USERS\IULIA\SABOTEUR\SABOTEUR\BIN\WIN32\DEBUG\PATHCARD.OBJ
C:\USERS\IULIA\SABOTEUR\SABOTEUR\BIN\WIN32\DEBUG\MAIN.OBJ
C:\USERS\IULIA\SABOTEUR\SABOTEUR\BIN\WIN32\DEBUG\GOLDCARD.OBJ
C:\USERS\IULIA\SABOTEUR\SABOTEUR\BIN\WIN32\DEBUG\GAME.OBJ
C:\USERS\IULIA\SABOTEUR\SABOTEUR\BIN\WIN32\DEBUG\DWARFCARD.OBJ
C:\USERS\IULIA\SABOTEUR\SABOTEUR\BIN\WIN32\DEBUG\DISPLAY.OBJ
C:\USERS\IULIA\SABOTEUR\SABOTEUR\BIN\WIN32\DEBUG\BOARDSTATECHECKER.OBJ
C:\USERS\IULIA\SABOTEUR\SABOTEUR\BIN\WIN32\DEBUG\BOARD.OBJ
C:\USERS\IULIA\SABOTEUR\SABOTEUR\BIN\WIN32\DEBUG\BEGINCARDS.OBJ
C:\USERS\IULIA\SABOTEUR\SABOTEUR\BIN\WIN32\DEBUG\BEGINCARD.OBJ
C:\USERS\IULIA\SABOTEUR\SABOTEUR\BIN\WIN32\DEBUG\ACTIONCARD.OBJ
^C:\USERS\IULIA\SABOTEUR\SABOTEUR\SABOTEUR\BOARD.CPP|C:\USERS\IULIA\SABOTEUR\SABOTEUR\SABOTEUR\BOARDSTATECHECKER.CPP|C:\USERS\IULIA\SABOTEUR\SABOTEUR\SABOTEUR\DISPLAY.CPP|C:\USERS\IULIA\SABOTEUR\SABOTEUR\SABOTEUR\GAME.CPP|C:\USERS\IULIA\SABOTEUR\SABOTEUR\SABOTEUR\MAIN.CPP|C:\USERS\IULIA\SABOTEUR\SABOTEUR\SABOTEUR\PLAYER.CPP
C:\USERS\IULIA\SABOTEUR\SABOTEUR\BIN\WIN32\DEBUG\VC141.PDB
C:\USERS\IULIA\SABOTEUR\SABOTEUR\BIN\WIN32\DEBUG\VC141.IDB
C:\USERS\IULIA\SABOTEUR\SABOTEUR\BIN\WIN32\DEBUG\PLAYER.OBJ
C:\USERS\IULIA\SABOTEUR\SABOTEUR\BIN\WIN32\DEBUG\MAIN.OBJ
C:\USERS\IULIA\SABOTEUR\SABOTEUR\BIN\WIN32\DEBUG\GAME.OBJ
C:\USERS\IULIA\SABOTEUR\SABOTEUR\BIN\WIN32\DEBUG\DISPLAY.OBJ
C:\USERS\IULIA\SABOTEUR\SABOTEUR\BIN\WIN32\DEBUG\BOARDSTATECHECKER.OBJ
C:\USERS\IULIA\SABOTEUR\SABOTEUR\BIN\WIN32\DEBUG\BOARD.OBJ
^C:\USERS\IULIA\SABOTEUR\SABOTEUR\SABOTEUR\MAIN.CPP|C:\USERS\IULIA\SABOTEUR\SABOTEUR\SABOTEUR\PLAYER.CPP
C:\USERS\IULIA\SABOTEUR\SABOTEUR\BIN\WIN32\DEBUG\VC141.PDB
C:\USERS\IULIA\SABOTEUR\SABOTEUR\BIN\WIN32\DEBUG\VC141.IDB
C:\USERS\IULIA\SABOTEUR\SABOTEUR\BIN\WIN32\DEBUG\PLAYER.OBJ
C:\USERS\IULIA\SABOTEUR\SABOTEUR\BIN\WIN32\DEBUG\MAIN.OBJ
^C:\USERS\IULIA\SABOTEUR\SABOTEUR\SABOTEUR\ACTIONCARD.CPP|C:\USERS\IULIA\SABOTEUR\SABOTEUR\SABOTEUR\BEGINCARD.CPP|C:\USERS\IULIA\SABOTEUR\SABOTEUR\SABOTEUR\BOARD.CPP|C:\USERS\IULIA\SABOTEUR\SABOTEUR\SABOTEUR\BOARDSTATECHECKER.CPP|C:\USERS\IULIA\SABOTEUR\SABOTEUR\SABOTEUR\DISPLAY.CPP|C:\USERS\IULIA\SABOTEUR\SABOTEUR\SABOTEUR\DWARFCARD.CPP|C:\USERS\IULIA\SABOTEUR\SABOTEUR\SABOTEUR\GAME.CPP|C:\USERS\IULIA\SABOTEUR\SABOTEUR\SABOTEUR\GOLDCARD.CPP|C:\USERS\IULIA\SABOTEUR\SABOTEUR\SABOTEUR\MAIN.CPP|C:\USERS\IULIA\SABOTEUR\SABOTEUR\SABOTEUR\PATHCARD.CPP|C:\USERS\IULIA\SABOTEUR\SABOTEUR\SABOTEUR\PLAYER.CPP|C:\USERS\IULIA\SABOTEUR\SABOTEUR\SABOTEUR\UNUSEDCARDS.CPP
C:\USERS\IULIA\SABOTEUR\SABOTEUR\BIN\WIN32\DEBUG\VC141.PDB
C:\USERS\IULIA\SABOTEUR\SABOTEUR\BIN\WIN32\DEBUG\VC141.IDB
C:\USERS\IULIA\SABOTEUR\SABOTEUR\BIN\WIN32\DEBUG\UNUSEDCARDS.OBJ
C:\USERS\IULIA\SABOTEUR\SABOTEUR\BIN\WIN32\DEBUG\PLAYER.OBJ
C:\USERS\IULIA\SABOTEUR\SABOTEUR\BIN\WIN32\DEBUG\PATHCARD.OBJ
C:\USERS\IULIA\SABOTEUR\SABOTEUR\BIN\WIN32\DEBUG\MAIN.OBJ
C:\USERS\IULIA\SABOTEUR\SABOTEUR\BIN\WIN32\DEBUG\GOLDCARD.OBJ
C:\USERS\IULIA\SABOTEUR\SABOTEUR\BIN\WIN32\DEBUG\GAME.OBJ
C:\USERS\IULIA\SABOTEUR\SABOTEUR\BIN\WIN32\DEBUG\DWARFCARD.OBJ
C:\USERS\IULIA\SABOTEUR\SABOTEUR\BIN\WIN32\DEBUG\DISPLAY.OBJ
C:\USERS\IULIA\SABOTEUR\SABOTEUR\BIN\WIN32\DEBUG\BOARDSTATECHECKER.OBJ
C:\USERS\IULIA\SABOTEUR\SABOTEUR\BIN\WIN32\DEBUG\BOARD.OBJ
C:\USERS\IULIA\SABOTEUR\SABOTEUR\BIN\WIN32\DEBUG\BEGINCARD.OBJ
C:\USERS\IULIA\SABOTEUR\SABOTEUR\BIN\WIN32\DEBUG\ACTIONCARD.OBJ
^C:\USERS\IULIA\SABOTEUR\SABOTEUR\SABOTEUR\ACTIONCARD.CPP
C:\USERS\IULIA\SABOTEUR\SABOTEUR\BIN\WIN32\DEBUG\VC141.PDB
^C:\USERS\IULIA\SABOTEUR\SABOTEUR\SABOTEUR\BEGINCARD.CPP
C:\USERS\IULIA\SABOTEUR\SABOTEUR\BIN\WIN32\DEBUG\VC141.PDB
^C:\USERS\IULIA\SABOTEUR\SABOTEUR\SABOTEUR\BOARD.CPP
C:\USERS\IULIA\SABOTEUR\SABOTEUR\BIN\WIN32\DEBUG\VC141.PDB
^C:\USERS\IULIA\SABOTEUR\SABOTEUR\SABOTEUR\BOARDSTATECHECKER.CPP
C:\USERS\IULIA\SABOTEUR\SABOTEUR\BIN\WIN32\DEBUG\VC141.PDB
^C:\USERS\IULIA\SABOTEUR\SABOTEUR\SABOTEUR\DISPLAY.CPP
C:\USERS\IULIA\SABOTEUR\SABOTEUR\BIN\WIN32\DEBUG\VC141.PDB
^C:\USERS\IULIA\SABOTEUR\SABOTEUR\SABOTEUR\DWARFCARD.CPP
C:\USERS\IULIA\SABOTEUR\SABOTEUR\BIN\WIN32\DEBUG\VC141.PDB
^C:\USERS\IULIA\SABOTEUR\SABOTEUR\SABOTEUR\GOLDCARD.CPP
C:\USERS\IULIA\SABOTEUR\SABOTEUR\BIN\WIN32\DEBUG\VC141.PDB
^C:\USERS\IULIA\SABOTEUR\SABOTEUR\SABOTEUR\PATHCARD.CPP
C:\USERS\IULIA\SABOTEUR\SABOTEUR\BIN\WIN32\DEBUG\VC141.PDB
^C:\USERS\IULIA\SABOTEUR\SABOTEUR\SABOTEUR\PLAYER.CPP
C:\USERS\IULIA\SABOTEUR\SABOTEUR\BIN\WIN32\DEBUG\VC141.PDB
^C:\USERS\IULIA\SABOTEUR\SABOTEUR\SABOTEUR\UNUSEDCARDS.CPP
C:\USERS\IULIA\SABOTEUR\SABOTEUR\BIN\WIN32\DEBUG\VC141.PDB
^C:\USERS\IULIA\SABOTEUR\SABOTEUR\SABOTEUR\GAME.CPP|C:\USERS\IULIA\SABOTEUR\SABOTEUR\SABOTEUR\MAIN.CPP
C:\USERS\IULIA\SABOTEUR\SABOTEUR\BIN\WIN32\DEBUG\VC141.PDB
C:\USERS\IULIA\SABOTEUR\SABOTEUR\BIN\WIN32\DEBUG\VC141.IDB
C:\USERS\IULIA\SABOTEUR\SABOTEUR\BIN\WIN32\DEBUG\MAIN.OBJ
C:\USERS\IULIA\SABOTEUR\SABOTEUR\BIN\WIN32\DEBUG\GAME.OBJ
^C:\USERS\IULIA\SABOTEUR\SABOTEUR\SABOTEUR\GAME.CPP
C:\USERS\IULIA\SABOTEUR\SABOTEUR\BIN\WIN32\DEBUG\VC141.PDB
^C:\USERS\IULIA\SABOTEUR\SABOTEUR\SABOTEUR\MAIN.CPP
C:\USERS\IULIA\SABOTEUR\SABOTEUR\BIN\WIN32\DEBUG\VC141.PDB
