^C:\USERS\IULIA\SABOTEUR\SABOTEUR\BIN\WIN32\DEBUG\ACTIONCARD.OBJ|C:\USERS\IULIA\SABOTEUR\SABOTEUR\BIN\WIN32\DEBUG\BEGINCARD.OBJ|C:\USERS\IULIA\SABOTEUR\SABOTEUR\BIN\WIN32\DEBUG\BOARD.OBJ|C:\USERS\IULIA\SABOTEUR\SABOTEUR\BIN\WIN32\DEBUG\BOARDSTATECHECKER.OBJ|C:\USERS\IULIA\SABOTEUR\SABOTEUR\BIN\WIN32\DEBUG\DISPLAY.OBJ|C:\USERS\IULIA\SABOTEUR\SABOTEUR\BIN\WIN32\DEBUG\DWARFCARD.OBJ|C:\USERS\IULIA\SABOTEUR\SABOTEUR\BIN\WIN32\DEBUG\GAME.OBJ|C:\USERS\IULIA\SABOTEUR\SABOTEUR\BIN\WIN32\DEBUG\GOLDCARD.OBJ|C:\USERS\IULIA\SABOTEUR\SABOTEUR\BIN\WIN32\DEBUG\MAIN.OBJ|C:\USERS\IULIA\SABOTEUR\SABOTEUR\BIN\WIN32\DEBUG\PATHCARD.OBJ|C:\USERS\IULIA\SABOTEUR\SABOTEUR\BIN\WIN32\DEBUG\PLAYER.OBJ|C:\USERS\IULIA\SABOTEUR\SABOTEUR\BIN\WIN32\DEBUG\UNUSEDCARDS.OBJ
C:\PROGRAM FILES (X86)\WINDOWS KITS\10\LIB\10.0.17763.0\UM\X86\KERNEL32.LIB
C:\PROGRAM FILES (X86)\WINDOWS KITS\10\LIB\10.0.17763.0\UM\X86\USER32.LIB
C:\PROGRAM FILES (X86)\WINDOWS KITS\10\LIB\10.0.17763.0\UM\X86\GDI32.LIB
C:\PROGRAM FILES (X86)\WINDOWS KITS\10\LIB\10.0.17763.0\UM\X86\WINSPOOL.LIB
C:\PROGRAM FILES (X86)\WINDOWS KITS\10\LIB\10.0.17763.0\UM\X86\COMDLG32.LIB
C:\PROGRAM FILES (X86)\WINDOWS KITS\10\LIB\10.0.17763.0\UM\X86\ADVAPI32.LIB
C:\PROGRAM FILES (X86)\WINDOWS KITS\10\LIB\10.0.17763.0\UM\X86\SHELL32.LIB
C:\PROGRAM FILES (X86)\WINDOWS KITS\10\LIB\10.0.17763.0\UM\X86\OLE32.LIB
C:\PROGRAM FILES (X86)\WINDOWS KITS\10\LIB\10.0.17763.0\UM\X86\OLEAUT32.LIB
C:\PROGRAM FILES (X86)\WINDOWS KITS\10\LIB\10.0.17763.0\UM\X86\UUID.LIB
C:\PROGRAM FILES (X86)\WINDOWS KITS\10\LIB\10.0.17763.0\UM\X86\ODBC32.LIB
C:\PROGRAM FILES (X86)\WINDOWS KITS\10\LIB\10.0.17763.0\UM\X86\ODBCCP32.LIB
C:\USERS\IULIA\SABOTEUR\SABOTEUR\BIN\WIN32\DEBUG\ACTIONCARD.OBJ
C:\USERS\IULIA\SABOTEUR\SABOTEUR\BIN\WIN32\DEBUG\BEGINCARD.OBJ
C:\USERS\IULIA\SABOTEUR\SABOTEUR\BIN\WIN32\DEBUG\BOARD.OBJ
C:\USERS\IULIA\SABOTEUR\SABOTEUR\BIN\WIN32\DEBUG\BOARDSTATECHECKER.OBJ
C:\USERS\IULIA\SABOTEUR\SABOTEUR\BIN\WIN32\DEBUG\DISPLAY.OBJ
C:\USERS\IULIA\SABOTEUR\SABOTEUR\BIN\WIN32\DEBUG\DWARFCARD.OBJ
C:\USERS\IULIA\SABOTEUR\SABOTEUR\BIN\WIN32\DEBUG\GAME.OBJ
C:\USERS\IULIA\SABOTEUR\SABOTEUR\BIN\WIN32\DEBUG\GOLDCARD.OBJ
C:\USERS\IULIA\SABOTEUR\SABOTEUR\BIN\WIN32\DEBUG\MAIN.OBJ
C:\USERS\IULIA\SABOTEUR\SABOTEUR\BIN\WIN32\DEBUG\PATHCARD.OBJ
C:\USERS\IULIA\SABOTEUR\SABOTEUR\BIN\WIN32\DEBUG\PLAYER.OBJ
C:\USERS\IULIA\SABOTEUR\SABOTEUR\BIN\WIN32\DEBUG\UNUSEDCARDS.OBJ
C:\WINDOWS\SYSTEM32\TZRES.DLL
C:\WINDOWS\GLOBALIZATION\SORTING\SORTDEFAULT.NLS
C:\PROGRAM FILES (X86)\MICROSOFT VISUAL STUDIO\2017\COMMUNITY\VC\TOOLS\MSVC\14.16.27023\LIB\X86\MSVCPRTD.LIB
C:\PROGRAM FILES (X86)\MICROSOFT VISUAL STUDIO\2017\COMMUNITY\VC\TOOLS\MSVC\14.16.27023\LIB\X86\MSVCRTD.LIB
C:\PROGRAM FILES (X86)\MICROSOFT VISUAL STUDIO\2017\COMMUNITY\VC\TOOLS\MSVC\14.16.27023\LIB\X86\OLDNAMES.LIB
C:\PROGRAM FILES (X86)\MICROSOFT VISUAL STUDIO\2017\COMMUNITY\VC\TOOLS\MSVC\14.16.27023\LIB\X86\VCRUNTIMED.LIB
C:\PROGRAM FILES (X86)\WINDOWS KITS\10\LIB\10.0.17763.0\UCRT\X86\UCRTD.LIB
